# Blender v2.78 (sub 0) OBJ File: ''
# www.blender.org
mtllib charAccGlassesSqr.mtl
o copy_charAccGlassesSqr.001
v -9.000015 -0.000008 -0.500011
v -9.000015 3.999989 -0.500011
v -8.000011 0.999996 -0.500011
v -1.000004 -0.000008 -0.500011
v -2.000008 0.999996 -0.500011
v -1.000004 2.000000 -0.500011
v -9.000015 -0.000008 0.499992
v -9.000015 3.999989 0.499993
v -8.000011 0.999996 0.499993
v -1.000004 -0.000008 0.499992
v -2.000008 0.999996 0.499993
v -1.000004 2.000000 0.499993
v -8.000011 2.999985 -0.500011
v -1.000004 3.999989 -0.500011
v -2.000008 2.999985 -0.500011
v -1.000004 2.999985 -0.500011
v -8.000011 2.999985 0.499993
v -2.000008 2.999985 0.499993
v -1.000004 3.999989 0.499993
v -1.000004 2.999985 0.499993
v 0.999985 -0.000008 -0.500011
v 0.999985 2.000000 -0.500011
v 1.999989 0.999996 -0.500011
v 8.999996 -0.000008 -0.500011
v 7.999992 0.999996 -0.500011
v 0.999985 -0.000008 0.499992
v 0.999985 2.000000 0.499993
v 1.999989 0.999996 0.499993
v 8.999996 -0.000008 0.499992
v 7.999992 0.999996 0.499993
v 0.999985 2.999985 -0.500011
v 0.999985 3.999989 -0.500011
v 1.999989 2.999985 -0.500011
v 7.999992 2.999985 -0.500011
v 8.999996 3.999989 -0.500011
v 0.999985 2.999985 0.499993
v 0.999985 3.999989 0.499993
v 1.999989 2.999985 0.499993
v 8.999996 3.999989 0.499993
v 7.999992 2.999985 0.499993
vt 0.3571 0.0556
vt 0.2857 0.4444
vt 0.2857 0.0000
vt 0.0000 0.5556
vt 0.0714 0.9444
vt 0.0000 1.0000
vt 0.5714 0.4444
vt 0.5000 0.3889
vt 0.5000 0.0556
vt 0.5000 0.4444
vt 0.2143 0.5556
vt 0.2857 0.5556
vt 0.2143 0.6111
vt 0.3571 0.6111
vt 0.2857 1.0000
vt 0.2857 0.5556
vt 0.0000 0.0000
vt 0.0714 0.3889
vt 0.0000 0.4444
vt 0.5000 0.5556
vt 0.5714 0.5556
vt 0.5000 0.6111
vt 0.5000 0.9444
vt 0.2857 0.4444
vt 0.2143 0.4444
vt 0.2143 0.3889
vt 0.2857 0.0000
vt 0.2143 0.0556
vt 0.5714 0.0000
vt 0.5714 1.0000
vt 0.3571 0.9444
vt 0.2143 0.9444
vt 0.2857 1.0000
vt 0.0714 0.0556
vt 0.5714 0.0000
vt 0.6429 0.0000
vt 0.5714 0.4444
vt 0.7143 0.0000
vt 0.7857 0.4444
vt 0.7143 0.4444
vt 0.3571 0.3889
vt 0.4286 0.4444
vt 0.0714 0.6111
vt 0.1429 0.5556
vt 0.4286 0.5556
vt 0.1429 0.4444
vt 0.7143 0.4444
vt 0.7143 0.6667
vt 0.6429 0.6667
vt 0.6429 0.4444
vt 0.9286 0.6667
vt 0.8571 0.6667
vt 0.8571 0.3333
vt 0.9286 0.3333
vt 0.7143 0.4444
vt 0.6429 0.4444
vt 0.6429 0.0000
vt 0.7143 0.0000
vt 0.8571 0.4444
vt 0.8571 0.5556
vt 0.7857 0.5556
vt 0.7857 0.4444
vt 1.0000 0.3333
vt 0.9286 0.3333
vt 0.9286 0.0000
vt 1.0000 0.0000
vt 1.0000 0.5556
vt 1.0000 0.6111
vt 0.9286 0.6111
vt 0.9286 0.5556
vt 0.6429 0.4444
vt 0.8571 0.5556
vt 0.8571 0.6667
vt 0.7857 0.6667
vt 0.7857 0.5556
vt 0.5714 0.4444
vt 0.6429 0.4444
vt 0.6429 0.7778
vt 0.5714 0.7778
vt 0.8571 0.4444
vt 0.7857 0.4444
vt 0.7857 0.0000
vt 0.8571 0.0000
vt 0.7857 0.4444
vt 0.7857 0.6667
vt 0.7143 0.6667
vt 0.7143 0.4444
vt 1.0000 0.6111
vt 1.0000 0.6667
vt 0.9286 0.6667
vt 0.9286 0.6111
vt 0.9286 0.3333
vt 0.8571 0.3333
vt 0.8571 0.0000
vt 0.9286 0.0000
vt 0.9286 0.7778
vt 0.8571 0.7778
vt 0.7857 0.0000
vt 1.0000 0.4444
vt 1.0000 0.5556
vt 0.9286 0.5556
vt 0.9286 0.4444
vt 1.0000 0.3333
vt 1.0000 0.4444
vt 0.9286 0.4444
vt 0.9286 0.3333
vt 0.8571 0.6667
vt 0.8571 0.7778
vt 0.7857 0.7778
vt 0.7857 0.6667
vt 0.7143 0.7778
vt 0.6429 0.7778
vt 0.6429 0.6667
vt 0.7143 0.6667
vt 0.7857 0.7778
vt 0.7143 0.7778
vt 0.7143 0.6667
vt 0.7857 0.6667
vn 0.0000 0.0000 -1.0000
vn 0.0000 -0.0000 1.0000
vn 0.0000 1.0000 0.0000
vn -1.0000 0.0000 0.0000
vn 0.0000 -1.0000 -0.0000
vn 1.0000 0.0000 0.0000
usemtl palette.001
s off
f 3/1/1 4/2/1 1/3/1
f 10/4/2 9/5/2 7/6/2
f 14/7/1 15/8/1 13/9/1
f 14/7/1 16/10/1 15/8/1
f 20/11/2 19/12/2 18/13/2
f 23/14/1 24/15/1 21/16/1
f 29/17/2 28/18/2 26/19/2
f 31/20/1 32/21/1 33/22/1
f 32/21/1 34/23/1 33/22/1
f 37/24/2 36/25/2 38/26/2
f 39/27/2 38/26/2 40/28/2
f 2/29/1 13/9/1 3/1/1
f 34/23/1 35/30/1 25/31/1
f 17/32/2 8/33/2 9/5/2
f 39/27/2 40/28/2 30/34/2
f 19/35/3 14/36/3 8/37/3
f 39/38/3 32/39/3 37/40/3
f 1/3/1 2/29/1 3/1/1
f 3/1/1 5/41/1 4/2/1
f 5/41/1 6/42/1 4/2/1
f 9/5/2 8/33/2 7/6/2
f 11/43/2 9/5/2 10/4/2
f 10/4/2 12/44/2 11/43/2
f 13/9/1 2/29/1 14/7/1
f 17/32/2 18/13/2 19/12/2 8/33/2
f 6/42/1 5/41/1 15/8/1 16/10/1
f 21/16/1 22/45/1 23/14/1
f 23/14/1 25/31/1 24/15/1
f 25/31/1 35/30/1 24/15/1
f 28/18/2 27/46/2 26/19/2
f 30/34/2 28/18/2 29/17/2
f 29/17/2 39/27/2 30/34/2
f 32/21/1 35/30/1 34/23/1
f 39/27/2 37/24/2 38/26/2
f 33/22/1 23/14/1 22/45/1 31/20/1
f 18/13/2 11/43/2 12/44/2 20/11/2
f 27/46/2 28/18/2 38/26/2 36/25/2
f 2/47/4 1/48/4 7/49/4 8/50/4
f 3/51/3 9/52/3 11/53/3 5/54/3
f 7/55/5 1/56/5 4/57/5 10/58/5
f 4/59/6 6/60/6 12/61/6 10/62/6
f 17/63/5 13/64/5 15/65/5 18/66/5
f 16/67/6 14/68/6 19/69/6 20/70/6
f 8/37/3 14/36/3 2/71/3
f 22/72/4 21/73/4 26/74/4 27/75/4
f 23/76/3 28/77/3 30/78/3 25/79/3
f 26/80/5 21/81/5 24/82/5 29/83/5
f 24/84/6 35/85/6 39/86/6 29/87/6
f 32/88/4 31/89/4 36/90/4 37/91/4
f 38/92/5 33/93/5 34/94/5 40/95/5
f 3/51/6 13/96/6 17/97/6 9/52/6
f 39/38/3 35/98/3 32/39/3
f 15/99/4 5/100/4 11/101/4 18/102/4
f 23/103/6 33/104/6 38/105/6 28/106/6
f 34/107/4 25/108/4 30/109/4 40/110/4
f 12/111/5 6/112/5 22/113/5 27/114/5
f 16/115/3 20/116/3 36/117/3 31/118/3
f 22/45/1 6/42/1 16/10/1 31/20/1
f 12/44/2 27/46/2 36/25/2 20/11/2
o charAccGlassesSqr
v -9.000000 4.000000 0.500001
v -9.000000 0.000000 -0.500000
v -9.000000 -0.000000 0.500000
v -9.000000 4.000000 -0.499999
v -2.000000 3.000000 0.500000
v -2.000000 1.000000 -0.500000
v -2.000000 1.000000 0.500000
v -2.000000 3.000000 -0.500000
v 1.000000 2.000000 0.500000
v 1.000000 0.000000 -0.500000
v 1.000000 -0.000000 0.500000
v 1.000000 2.000000 -0.500000
v 1.000000 4.000000 0.500001
v 1.000000 3.000000 -0.500000
v 1.000000 3.000000 0.500000
v 1.000000 4.000000 -0.499999
v 8.000000 3.000000 0.500000
v 8.000000 1.000000 -0.500000
v 8.000000 1.000000 0.500000
v 8.000000 3.000000 -0.500000
v -8.000000 1.000000 0.500000
v -8.000000 1.000000 -0.500000
v -8.000000 3.000000 0.500000
v -8.000000 3.000000 -0.500000
v -1.000000 -0.000000 0.500000
v -1.000000 0.000000 -0.500000
v -1.000000 2.000000 0.500000
v -1.000000 2.000000 -0.500000
v -1.000000 3.000000 0.500000
v -1.000000 3.000000 -0.500000
v -1.000000 4.000000 0.500001
v -1.000000 4.000000 -0.499999
v 2.000000 1.000000 0.500000
v 2.000000 1.000000 -0.500000
v 2.000000 3.000000 0.500000
v 2.000000 3.000000 -0.500000
v 9.000000 -0.000000 0.500000
v 9.000000 0.000000 -0.500000
v 9.000000 4.000000 0.500001
v 9.000000 4.000000 -0.499999
v -8.000000 1.000000 0.500000
v -9.000000 4.000000 0.500001
v -9.000000 -0.000000 0.500000
v -8.000000 3.000000 0.500000
v -2.000000 1.000000 0.500000
v -2.000000 3.000000 0.500000
v -1.000000 -0.000000 0.500000
v -1.000000 2.000000 0.500000
v -1.000000 3.000000 0.500000
v -1.000000 4.000000 0.500001
v 1.000000 2.000000 0.500000
v 1.000000 3.000000 0.500000
v 2.000000 1.000000 0.500000
v 1.000000 -0.000000 0.500000
v 1.000000 4.000000 0.500001
v 2.000000 3.000000 0.500000
v 8.000000 1.000000 0.500000
v 8.000000 3.000000 0.500000
v 9.000000 -0.000000 0.500000
v 9.000000 4.000000 0.500001
v -9.000000 0.000000 -0.500000
v -9.000000 4.000000 -0.499999
v -8.000000 1.000000 -0.500000
v -8.000000 3.000000 -0.500000
v -2.000000 1.000000 -0.500000
v -2.000000 3.000000 -0.500000
v -1.000000 0.000000 -0.500000
v -1.000000 2.000000 -0.500000
v -1.000000 3.000000 -0.500000
v -1.000000 4.000000 -0.499999
v 1.000000 2.000000 -0.500000
v 1.000000 3.000000 -0.500000
v 1.000000 0.000000 -0.500000
v 2.000000 1.000000 -0.500000
v 1.000000 4.000000 -0.499999
v 2.000000 3.000000 -0.500000
v 8.000000 1.000000 -0.500000
v 8.000000 3.000000 -0.500000
v 9.000000 0.000000 -0.500000
v 9.000000 4.000000 -0.499999
v -9.000000 0.000000 -0.500000
v -1.000000 -0.000000 0.500000
v -9.000000 -0.000000 0.500000
v -1.000000 0.000000 -0.500000
v 1.000000 0.000000 -0.500000
v 9.000000 -0.000000 0.500000
v 1.000000 -0.000000 0.500000
v 9.000000 0.000000 -0.500000
v -1.000000 2.000000 -0.500000
v 1.000000 2.000000 0.500000
v -1.000000 2.000000 0.500000
v 1.000000 2.000000 -0.500000
v -8.000000 3.000000 -0.500000
v -2.000000 3.000000 0.500000
v -8.000000 3.000000 0.500000
v -2.000000 3.000000 -0.500000
v 2.000000 3.000000 -0.500000
v 8.000000 3.000000 0.500000
v 2.000000 3.000000 0.500000
v 8.000000 3.000000 -0.500000
v -8.000000 1.000000 0.500000
v -2.000000 1.000000 0.500000
v -8.000000 1.000000 -0.500000
v -2.000000 1.000000 -0.500000
v 2.000000 1.000000 0.500000
v 8.000000 1.000000 0.500000
v 2.000000 1.000000 -0.500000
v 8.000000 1.000000 -0.500000
v -1.000000 3.000000 0.500000
v 1.000000 3.000000 0.500000
v -1.000000 3.000000 -0.500000
v 1.000000 3.000000 -0.500000
v -9.000000 4.000000 0.500001
v -1.000000 4.000000 0.500001
v -9.000000 4.000000 -0.499999
v -1.000000 4.000000 -0.499999
v 1.000000 4.000000 0.500001
v 9.000000 4.000000 0.500001
v 1.000000 4.000000 -0.499999
v 9.000000 4.000000 -0.499999
vt 0.9824 0.5000
vt 0.9824 0.5000
vt 0.9824 0.5000
vt 0.9824 0.5000
vt 0.9824 0.5000
vt 0.9824 0.5000
vt 0.9824 0.5000
vt 0.9824 0.5000
vt 0.9824 0.5000
vt 0.9824 0.5000
vt 0.9824 0.5000
vt 0.9824 0.5000
vt 0.9824 0.5000
vt 0.9824 0.5000
vt 0.9824 0.5000
vt 0.9824 0.5000
vt 0.9824 0.5000
vt 0.9824 0.5000
vt 0.9824 0.5000
vt 0.9824 0.5000
vt 0.9824 0.5000
vt 0.9824 0.5000
vt 0.9824 0.5000
vt 0.9824 0.5000
vt 0.9824 0.5000
vt 0.9824 0.5000
vt 0.9824 0.5000
vt 0.9824 0.5000
vt 0.9824 0.5000
vt 0.9824 0.5000
vt 0.9824 0.5000
vt 0.9824 0.5000
vt 0.9824 0.5000
vt 0.9824 0.5000
vt 0.9824 0.5000
vt 0.9824 0.5000
vt 0.9824 0.5000
vt 0.9824 0.5000
vt 0.9824 0.5000
vt 0.9824 0.5000
vt 0.9824 0.5000
vt 0.9824 0.5000
vt 0.9824 0.5000
vt 0.9824 0.5000
vt 0.9824 0.5000
vt 0.9824 0.5000
vt 0.9824 0.5000
vt 0.9824 0.5000
vt 0.9824 0.5000
vt 0.9824 0.5000
vt 0.9824 0.5000
vt 0.9824 0.5000
vt 0.9824 0.5000
vt 0.9824 0.5000
vt 0.9824 0.5000
vt 0.9824 0.5000
vt 0.9824 0.5000
vt 0.9824 0.5000
vt 0.9824 0.5000
vt 0.9824 0.5000
vt 0.9824 0.5000
vt 0.9824 0.5000
vt 0.9824 0.5000
vt 0.9824 0.5000
vt 0.9824 0.5000
vt 0.9824 0.5000
vt 0.9824 0.5000
vt 0.9824 0.5000
vt 0.9824 0.5000
vt 0.9824 0.5000
vt 0.9824 0.5000
vt 0.9824 0.5000
vt 0.9824 0.5000
vt 0.9824 0.5000
vt 0.9824 0.5000
vt 0.9824 0.5000
vt 0.9824 0.5000
vt 0.9824 0.5000
vt 0.9824 0.5000
vt 0.9824 0.5000
vt 0.9824 0.5000
vt 0.9824 0.5000
vt 0.9824 0.5000
vt 0.9824 0.5000
vt 0.9824 0.5000
vt 0.9824 0.5000
vt 0.9824 0.5000
vt 0.9824 0.5000
vt 0.9824 0.5000
vt 0.9824 0.5000
vt 0.9824 0.5000
vt 0.9824 0.5000
vt 0.9824 0.5000
vt 0.9824 0.5000
vt 0.9824 0.5000
vt 0.9824 0.5000
vt 0.9824 0.5000
vt 0.9824 0.5000
vt 0.9824 0.5000
vt 0.9824 0.5000
vt 0.9824 0.5000
vt 0.9824 0.5000
vt 0.9824 0.5000
vt 0.9824 0.5000
vt 0.9824 0.5000
vt 0.9824 0.5000
vt 0.9824 0.5000
vt 0.9824 0.5000
vt 0.9824 0.5000
vt 0.9824 0.5000
vt 0.9824 0.5000
vt 0.9824 0.5000
vt 0.9824 0.5000
vt 0.9824 0.5000
vt 0.9824 0.5000
vt 0.9824 0.5000
vt 0.9824 0.5000
vt 0.9824 0.5000
vt 0.9824 0.5000
vt 0.9824 0.5000
vn -1.0000 0.0000 0.0000
vn 1.0000 0.0000 0.0000
vn -0.0000 -0.0000 1.0000
vn 0.0000 0.0000 -1.0000
vn 0.0000 -1.0000 -0.0000
vn 0.0000 1.0000 0.0000
usemtl palette.001_charAccGlassesSqr.png
s 1
f 41/119/7 42/120/7 43/121/7
f 44/122/7 42/120/7 41/119/7
f 45/123/7 46/124/7 47/125/7
f 48/126/7 46/124/7 45/123/7
f 49/127/7 50/128/7 51/129/7
f 52/130/7 50/128/7 49/127/7
f 53/131/7 54/132/7 55/133/7
f 56/134/7 54/132/7 53/131/7
f 57/135/7 58/136/7 59/137/7
f 60/138/7 58/136/7 57/135/7
f 61/139/8 62/140/8 63/141/8
f 63/141/8 62/140/8 64/142/8
f 65/143/8 66/144/8 67/145/8
f 67/145/8 66/144/8 68/146/8
f 69/147/8 70/148/8 71/149/8
f 71/149/8 70/148/8 72/150/8
f 73/151/8 74/152/8 75/153/8
f 75/153/8 74/152/8 76/154/8
f 77/155/8 78/156/8 79/157/8
f 79/157/8 78/156/8 80/158/8
f 81/159/9 82/160/9 83/161/9
f 84/162/9 82/160/9 81/159/9
f 85/163/9 81/159/9 83/161/9
f 86/164/9 82/160/9 84/162/9
f 87/165/9 85/163/9 83/161/9
f 87/165/9 86/164/9 85/163/9
f 88/166/9 86/164/9 87/165/9
f 89/167/9 82/160/9 86/164/9
f 89/167/9 86/164/9 88/166/9
f 90/168/9 82/160/9 89/167/9
f 91/169/9 89/167/9 88/166/9
f 92/170/9 89/167/9 91/169/9
f 93/171/9 91/169/9 94/172/9
f 93/171/9 95/173/9 92/170/9
f 93/171/9 92/170/9 91/169/9
f 96/174/9 95/173/9 93/171/9
f 97/175/9 93/171/9 94/172/9
f 98/176/9 95/173/9 96/174/9
f 99/177/9 97/175/9 94/172/9
f 99/177/9 98/176/9 97/175/9
f 100/178/9 95/173/9 98/176/9
f 100/178/9 98/176/9 99/177/9
f 101/179/10 102/180/10 103/181/10
f 103/181/10 102/180/10 104/182/10
f 101/179/10 103/181/10 105/183/10
f 104/182/10 102/180/10 106/184/10
f 101/179/10 105/183/10 107/185/10
f 105/183/10 106/184/10 107/185/10
f 107/185/10 106/184/10 108/186/10
f 106/184/10 102/180/10 109/187/10
f 108/186/10 106/184/10 109/187/10
f 109/187/10 102/180/10 110/188/10
f 108/186/10 109/187/10 111/189/10
f 111/189/10 109/187/10 112/190/10
f 113/191/10 111/189/10 114/192/10
f 112/190/10 115/193/10 114/192/10
f 111/189/10 112/190/10 114/192/10
f 114/192/10 115/193/10 116/194/10
f 113/191/10 114/192/10 117/195/10
f 116/194/10 115/193/10 118/196/10
f 113/191/10 117/195/10 119/197/10
f 117/195/10 118/196/10 119/197/10
f 118/196/10 115/193/10 120/198/10
f 119/197/10 118/196/10 120/198/10
f 121/199/11 122/200/11 123/201/11
f 124/202/11 122/200/11 121/199/11
f 125/203/11 126/204/11 127/205/11
f 128/206/11 126/204/11 125/203/11
f 129/207/11 130/208/11 131/209/11
f 132/210/11 130/208/11 129/207/11
f 133/211/11 134/212/11 135/213/11
f 136/214/11 134/212/11 133/211/11
f 137/215/11 138/216/11 139/217/11
f 140/218/11 138/216/11 137/215/11
f 141/219/12 142/220/12 143/221/12
f 143/221/12 142/220/12 144/222/12
f 145/223/12 146/224/12 147/225/12
f 147/225/12 146/224/12 148/226/12
f 149/227/12 150/228/12 151/229/12
f 151/229/12 150/228/12 152/230/12
f 153/231/12 154/232/12 155/233/12
f 155/233/12 154/232/12 156/234/12
f 157/235/12 158/236/12 159/237/12
f 159/237/12 158/236/12 160/238/12
