# Blender v2.78 (sub 0) OBJ File: ''
# www.blender.org
mtllib tileFloorCorner.mtl
o copy_tileFloorCorner.001
v -8.000014 -0.000012 -8.000014
v -8.000014 -0.000015 7.999996
v -8.000014 0.999997 -8.000014
v -8.000014 0.999995 7.999996
v 7.999996 -0.000012 -8.000014
v 7.999996 -0.000015 7.999996
v 7.999996 0.999997 -8.000014
v 7.999996 0.999995 7.999996
vt 0.0061 0.9939
vt 0.0061 0.5061
vt 0.0366 0.5061
vt 0.0366 0.9939
vt 0.1646 0.5061
vt 0.1646 0.9939
vt 0.1341 0.9939
vt 0.1341 0.5061
vt 0.9939 0.4939
vt 0.5061 0.4939
vt 0.5061 0.0061
vt 0.9939 0.0061
vt 0.0061 0.4939
vt 0.0061 0.0061
vt 0.4939 0.0061
vt 0.4939 0.4939
vt 0.1220 0.9939
vt 0.0915 0.9939
vt 0.0915 0.5061
vt 0.1220 0.5061
vt 0.0488 0.5061
vt 0.0793 0.5061
vt 0.0793 0.9939
vt 0.0488 0.9939
vn -1.0000 0.0000 0.0000
vn 1.0000 0.0000 0.0000
vn 0.0000 -1.0000 -0.0000
vn 0.0000 1.0000 0.0000
vn 0.0000 0.0000 -1.0000
vn 0.0000 0.0000 1.0000
usemtl palette.014
s off
f 1/1/1 2/2/1 4/3/1 3/4/1
f 7/5/2 8/6/2 6/7/2 5/8/2
f 1/9/3 5/10/3 6/11/3 2/12/3
f 4/13/4 8/14/4 7/15/4 3/16/4
f 1/17/5 3/18/5 7/19/5 5/20/5
f 6/21/6 8/22/6 4/23/6 2/24/6
o tileFloorCorner
v -8.000000 0.999999 8.000000
v -8.000000 0.000001 -5.000000
v -8.000000 -0.000001 8.000000
v -8.000000 1.000001 -5.000000
v -8.000000 0.000001 -6.000000
v -8.000000 1.000001 -6.000000
v -8.000000 0.000001 -8.000000
v -8.000000 1.000001 -8.000000
v 8.000000 -0.000001 8.000000
v 8.000000 0.000001 -8.000000
v 8.000000 0.999999 8.000000
v 8.000000 1.000001 -8.000000
v 5.000000 -0.000001 8.000000
v -8.000000 0.999999 8.000000
v -8.000000 -0.000001 8.000000
v 5.000000 0.999999 8.000000
v 6.000000 -0.000001 8.000000
v 6.000000 0.999999 8.000000
v 8.000000 -0.000001 8.000000
v 8.000000 0.999999 8.000000
v -8.000000 0.000001 -8.000000
v -8.000000 1.000001 -8.000000
v 8.000000 0.000001 -8.000000
v 8.000000 1.000001 -8.000000
v -2.000000 -0.000001 6.000000
v 5.000000 -0.000001 8.000000
v -8.000000 -0.000001 8.000000
v -1.000000 -0.000001 6.000000
v -2.000000 -0.000001 5.000000
v -1.000000 -0.000001 5.000000
v 1.000000 -0.000001 5.000000
v 2.000000 -0.000001 5.000000
v 1.000000 -0.000001 4.000000
v 2.000000 -0.000001 4.000000
v -1.000000 -0.000000 2.000000
v 0.000000 -0.000000 2.000000
v -7.000000 -0.000000 1.000000
v -6.000000 -0.000000 1.000000
v -1.000000 -0.000000 1.000000
v 0.000000 -0.000000 1.000000
v -7.000000 0.000000 0.000000
v -6.000000 0.000000 0.000000
v 1.000000 0.000000 -1.000000
v 2.000000 0.000000 -1.000000
v -5.000000 0.000000 -2.000000
v -4.000000 0.000000 -2.000000
v 1.000000 0.000000 -2.000000
v 2.000000 0.000000 -2.000000
v -5.000000 0.000000 -3.000000
v -4.000000 0.000000 -3.000000
v -8.000000 0.000001 -5.000000
v 5.000000 0.000001 -5.000000
v 6.000000 -0.000001 8.000000
v -8.000000 0.000001 -6.000000
v 6.000000 0.000001 -6.000000
v 8.000000 -0.000001 8.000000
v -8.000000 0.000001 -8.000000
v 8.000000 0.000001 -8.000000
v -8.000000 0.999999 8.000000
v 5.000000 0.999999 8.000000
v -2.000000 0.999999 6.000000
v -1.000000 0.999999 6.000000
v -2.000000 0.999999 5.000000
v -1.000000 0.999999 5.000000
v 1.000000 0.999999 5.000000
v 2.000000 0.999999 5.000000
v 1.000000 0.999999 4.000000
v 2.000000 0.999999 4.000000
v -1.000000 1.000000 2.000000
v 0.000000 1.000000 2.000000
v -7.000000 1.000000 1.000000
v -6.000000 1.000000 1.000000
v -1.000000 1.000000 1.000000
v 0.000000 1.000000 1.000000
v -7.000000 1.000000 0.000000
v -6.000000 1.000000 0.000000
v 1.000000 1.000000 -1.000000
v 2.000000 1.000000 -1.000000
v -5.000000 1.000000 -2.000000
v -4.000000 1.000000 -2.000000
v 1.000000 1.000000 -2.000000
v 2.000000 1.000000 -2.000000
v -5.000000 1.000000 -3.000000
v -4.000000 1.000000 -3.000000
v -8.000000 1.000001 -5.000000
v 6.000000 0.999999 8.000000
v 5.000000 1.000001 -5.000000
v -8.000000 1.000001 -6.000000
v 8.000000 0.999999 8.000000
v 6.000000 1.000001 -6.000000
v -8.000000 1.000001 -8.000000
v 8.000000 1.000001 -8.000000
vt 0.9707 0.5000
vt 0.9707 0.5000
vt 0.9707 0.5000
vt 0.9746 0.5000
vt 0.9746 0.5000
vt 0.9746 0.5000
vt 0.9707 0.5000
vt 0.9707 0.5000
vt 0.9707 0.5000
vt 0.9707 0.5000
vt 0.9746 0.5000
vt 0.9707 0.5000
vt 0.9707 0.5000
vt 0.9707 0.5000
vt 0.9707 0.5000
vt 0.9707 0.5000
vt 0.9707 0.5000
vt 0.9707 0.5000
vt 0.9707 0.5000
vt 0.9707 0.5000
vt 0.9746 0.5000
vt 0.9746 0.5000
vt 0.9746 0.5000
vt 0.9746 0.5000
vt 0.9707 0.5000
vt 0.9707 0.5000
vt 0.9707 0.5000
vt 0.9707 0.5000
vt 0.9707 0.5000
vt 0.9707 0.5000
vt 0.9707 0.5000
vt 0.9707 0.5000
vt 0.9707 0.5000
vt 0.9707 0.5000
vt 0.9707 0.5000
vt 0.9707 0.5000
vt 0.9707 0.5000
vt 0.9746 0.5000
vt 0.9746 0.5000
vt 0.9746 0.5000
vt 0.9707 0.5000
vt 0.9746 0.5000
vt 0.9707 0.5000
vt 0.9707 0.5000
vt 0.9707 0.5000
vt 0.9746 0.5000
vt 0.9746 0.5000
vt 0.9746 0.5000
vt 0.9707 0.5000
vt 0.9746 0.5000
vt 0.9707 0.5000
vt 0.9707 0.5000
vt 0.9707 0.5000
vt 0.9707 0.5000
vt 0.9746 0.5000
vt 0.9746 0.5000
vt 0.9746 0.5000
vt 0.9707 0.5000
vt 0.9707 0.5000
vt 0.9746 0.5000
vt 0.9746 0.5000
vt 0.9746 0.5000
vt 0.9746 0.5000
vt 0.9707 0.5000
vt 0.9707 0.5000
vt 0.9746 0.5000
vt 0.9707 0.5000
vt 0.9707 0.5000
vt 0.9707 0.5000
vt 0.9707 0.5000
vt 0.9746 0.5000
vt 0.9746 0.5000
vt 0.9746 0.5000
vt 0.9707 0.5000
vt 0.9707 0.5000
vt 0.9746 0.5000
vt 0.9746 0.5000
vt 0.9746 0.5000
vt 0.9746 0.5000
vt 0.9707 0.5000
vt 0.9707 0.5000
vt 0.9746 0.5000
vt 0.9707 0.5000
vt 0.9746 0.5000
vt 0.9746 0.5000
vt 0.9746 0.5000
vt 0.9707 0.5000
vt 0.9746 0.5000
vt 0.9746 0.5000
vt 0.9707 0.5000
vt 0.9707 0.5000
vt 0.9707 0.5000
vt 0.9746 0.5000
vt 0.9707 0.5000
vt 0.9707 0.5000
vt 0.9707 0.5000
vt 0.9707 0.5000
vt 0.9707 0.5000
vt 0.9707 0.5000
vt 0.9707 0.5000
vt 0.9707 0.5000
vt 0.9746 0.5000
vt 0.9746 0.5000
vt 0.9746 0.5000
vt 0.9707 0.5000
vt 0.9746 0.5000
vt 0.9707 0.5000
vt 0.9707 0.5000
vt 0.9707 0.5000
vt 0.9746 0.5000
vt 0.9746 0.5000
vt 0.9746 0.5000
vt 0.9707 0.5000
vt 0.9746 0.5000
vt 0.9707 0.5000
vt 0.9707 0.5000
vt 0.9707 0.5000
vt 0.9707 0.5000
vt 0.9746 0.5000
vt 0.9746 0.5000
vt 0.9746 0.5000
vt 0.9707 0.5000
vt 0.9707 0.5000
vt 0.9746 0.5000
vt 0.9746 0.5000
vt 0.9746 0.5000
vt 0.9746 0.5000
vt 0.9707 0.5000
vt 0.9707 0.5000
vt 0.9746 0.5000
vt 0.9707 0.5000
vt 0.9707 0.5000
vt 0.9707 0.5000
vt 0.9707 0.5000
vt 0.9746 0.5000
vt 0.9746 0.5000
vt 0.9746 0.5000
vt 0.9707 0.5000
vt 0.9707 0.5000
vt 0.9746 0.5000
vt 0.9746 0.5000
vt 0.9746 0.5000
vt 0.9746 0.5000
vt 0.9707 0.5000
vt 0.9707 0.5000
vt 0.9746 0.5000
vt 0.9707 0.5000
vt 0.9746 0.5000
vt 0.9746 0.5000
vt 0.9746 0.5000
vt 0.9707 0.5000
vt 0.9746 0.5000
vt 0.9746 0.5000
vt 0.9707 0.5000
vt 0.9707 0.5000
vt 0.9707 0.5000
vt 0.9746 0.5000
vt 0.9707 0.5000
vt 0.9707 0.5000
vt 0.9707 0.5000
vn -1.0000 0.0000 0.0000
vn 1.0000 0.0000 0.0000
vn 0.0000 0.0000 1.0000
vn 0.0000 0.0000 -1.0000
vn -0.0000 -1.0000 -0.0000
vn 0.0000 1.0000 0.0000
usemtl palette.014_tileFloorCorner.png
s 1
f 9/25/7 10/26/7 11/27/7
f 12/28/7 13/29/7 10/30/7
f 12/31/7 10/26/7 9/25/7
f 14/32/7 15/33/7 13/34/7
f 14/35/7 13/29/7 12/28/7
f 16/36/7 15/33/7 14/32/7
f 17/37/8 18/38/8 19/39/8
f 19/39/8 18/38/8 20/40/8
f 21/41/9 22/42/9 23/43/9
f 24/44/9 22/42/9 21/41/9
f 25/45/9 24/46/9 21/47/9
f 26/48/9 24/46/9 25/45/9
f 27/49/9 26/50/9 25/51/9
f 28/52/9 26/50/9 27/49/9
f 29/53/10 30/54/10 31/55/10
f 31/55/10 30/54/10 32/56/10
f 33/57/11 34/58/11 35/59/11
f 36/60/11 34/58/11 33/57/11
f 37/61/11 33/57/11 35/59/11
f 37/62/11 36/63/11 33/64/11
f 38/65/11 34/58/11 36/60/11
f 38/66/11 36/63/11 37/62/11
f 39/67/11 34/58/11 38/65/11
f 40/68/11 34/58/11 39/67/11
f 41/69/11 38/65/11 37/61/11
f 41/69/11 39/67/11 38/65/11
f 41/70/11 40/71/11 39/72/11
f 42/73/11 34/58/11 40/68/11
f 42/74/11 40/71/11 41/70/11
f 43/75/11 41/69/11 37/61/11
f 43/75/11 42/73/11 41/69/11
f 44/76/11 42/73/11 43/75/11
f 45/77/11 37/61/11 35/59/11
f 45/77/11 43/75/11 37/61/11
f 46/78/11 43/75/11 45/77/11
f 47/79/11 44/80/11 43/81/11
f 47/82/11 43/75/11 46/78/11
f 48/83/11 42/73/11 44/76/11
f 48/84/11 44/80/11 47/79/11
f 49/85/11 46/86/11 45/87/11
f 49/88/11 45/77/11 35/59/11
f 50/89/11 47/82/11 46/78/11
f 50/90/11 46/86/11 49/85/11
f 50/89/11 48/83/11 47/82/11
f 51/91/11 42/73/11 48/83/11
f 51/91/11 48/83/11 50/89/11
f 51/91/11 50/89/11 49/88/11
f 52/92/11 34/58/11 42/73/11
f 52/92/11 42/73/11 51/91/11
f 53/93/11 51/91/11 49/88/11
f 54/94/11 51/91/11 53/93/11
f 55/95/11 52/96/11 51/97/11
f 55/98/11 51/91/11 54/94/11
f 56/99/11 34/58/11 52/92/11
f 56/100/11 52/96/11 55/95/11
f 57/101/11 54/102/11 53/103/11
f 57/104/11 53/93/11 49/88/11
f 58/105/11 55/98/11 54/94/11
f 58/106/11 54/102/11 57/101/11
f 58/105/11 56/99/11 55/98/11
f 59/107/11 49/88/11 35/59/11
f 59/107/11 57/104/11 49/88/11
f 59/107/11 58/105/11 57/104/11
f 60/108/11 61/109/11 34/110/11
f 60/111/11 58/105/11 59/107/11
f 60/111/11 56/99/11 58/105/11
f 60/111/11 34/58/11 56/99/11
f 62/112/11 60/108/11 59/113/11
f 63/114/11 64/115/11 61/116/11
f 63/117/11 60/108/11 62/112/11
f 63/117/11 61/109/11 60/108/11
f 65/118/11 63/114/11 62/119/11
f 66/120/11 64/115/11 63/114/11
f 66/120/11 63/114/11 65/118/11
f 67/121/12 68/122/12 69/123/12
f 69/123/12 68/122/12 70/124/12
f 67/121/12 69/123/12 71/125/12
f 69/126/12 70/127/12 71/128/12
f 70/124/12 68/122/12 72/129/12
f 71/128/12 70/127/12 72/130/12
f 72/129/12 68/122/12 73/131/12
f 73/131/12 68/122/12 74/132/12
f 71/125/12 72/129/12 75/133/12
f 72/129/12 73/131/12 75/133/12
f 73/134/12 74/135/12 75/136/12
f 74/132/12 68/122/12 76/137/12
f 75/136/12 74/135/12 76/138/12
f 71/125/12 75/133/12 77/139/12
f 75/133/12 76/137/12 77/139/12
f 77/139/12 76/137/12 78/140/12
f 67/121/12 71/125/12 79/141/12
f 71/125/12 77/139/12 79/141/12
f 79/141/12 77/139/12 80/142/12
f 77/143/12 78/144/12 81/145/12
f 80/142/12 77/139/12 81/146/12
f 78/140/12 76/137/12 82/147/12
f 81/145/12 78/144/12 82/148/12
f 79/149/12 80/150/12 83/151/12
f 67/121/12 79/141/12 83/152/12
f 80/142/12 81/146/12 84/153/12
f 83/151/12 80/150/12 84/154/12
f 81/146/12 82/147/12 84/153/12
f 82/147/12 76/137/12 85/155/12
f 84/153/12 82/147/12 85/155/12
f 83/152/12 84/153/12 85/155/12
f 76/137/12 68/122/12 86/156/12
f 85/155/12 76/137/12 86/156/12
f 83/152/12 85/155/12 87/157/12
f 87/157/12 85/155/12 88/158/12
f 85/159/12 86/160/12 89/161/12
f 88/158/12 85/155/12 89/162/12
f 86/156/12 68/122/12 90/163/12
f 89/161/12 86/160/12 90/164/12
f 87/165/12 88/166/12 91/167/12
f 83/152/12 87/157/12 91/168/12
f 88/158/12 89/162/12 92/169/12
f 91/167/12 88/166/12 92/170/12
f 89/162/12 90/163/12 92/169/12
f 67/121/12 83/152/12 93/171/12
f 83/152/12 91/168/12 93/171/12
f 91/168/12 92/169/12 93/171/12
f 68/172/12 94/173/12 95/174/12
f 93/171/12 92/169/12 95/175/12
f 92/169/12 90/163/12 95/175/12
f 90/163/12 68/122/12 95/175/12
f 93/176/12 95/174/12 96/177/12
f 94/178/12 97/179/12 98/180/12
f 96/177/12 95/174/12 98/181/12
f 95/174/12 94/173/12 98/181/12
f 96/182/12 98/180/12 99/183/12
f 98/180/12 97/179/12 100/184/12
f 99/183/12 98/180/12 100/184/12
