# Blender v2.78 (sub 0) OBJ File: ''
# www.blender.org
mtllib propPianoBench.mtl
o copy_propPianoBench.001
v -8.000014 -0.000007 -4.000007
v -8.000014 -0.000007 -3.000014
v -8.000014 4.999994 -3.000013
v -7.000004 -0.000007 -4.000007
v -7.000004 -0.000007 -3.000014
v -8.000014 6.999998 -4.000006
v -8.000014 -0.000008 2.999997
v -8.000014 -0.000008 3.999990
v -7.000004 -0.000008 2.999997
v -7.000004 -0.000008 3.999990
v -8.000014 4.833333 3.999991
v -7.000004 4.999993 3.999991
v -7.000004 4.999994 -3.000013
v -8.000014 4.999993 2.999998
v -8.000014 6.999997 2.999998
v -7.000004 4.999993 2.999998
v -8.000014 6.999998 -3.000013
v -8.000014 7.999991 -3.000013
v -7.000004 6.999998 -3.000013
v -7.000004 7.999991 -4.000006
v -7.000004 7.999990 -3.000013
v -8.000014 7.999990 2.999998
v -6.527778 7.999990 1.527779
v -7.000004 4.999994 -4.000006
v 6.999987 4.999994 -3.000013
v -7.000004 6.999998 -4.000006
v 6.999987 7.999991 -4.000006
v 6.999987 6.999998 -4.000006
v -6.666667 5.666667 3.999991
v -8.000014 6.999997 3.999992
v -7.000004 6.999997 2.999998
v -7.000004 6.999997 3.999990
v -7.000004 7.999988 2.999998
v -7.000004 7.999990 3.999992
v 6.999987 7.999990 3.999992
v 6.999987 -0.000007 -4.000007
v 6.999987 -0.000007 -3.000014
v 7.999996 -0.000007 -4.000007
v 7.999996 -0.000007 -3.000014
v 7.999996 4.999994 -3.000013
v 7.999996 6.999998 -4.000006
v 6.999987 -0.000008 2.999997
v 6.999987 -0.000008 3.999990
v 7.999996 -0.000008 2.999997
v 7.999996 -0.000008 3.999990
v 6.999987 4.999993 3.999990
v 7.999996 4.833333 3.999991
v 6.999987 4.999994 -4.000006
v 6.999987 4.999993 2.999998
v 6.999987 7.999990 -3.000013
v 7.999996 4.999993 2.999998
v 7.999996 6.999997 2.999998
v 6.999987 6.999998 -3.000013
v 7.999996 6.999998 -3.000013
v 7.999996 7.999991 -3.000013
v 7.999996 7.999990 2.999998
v 5.277778 4.999993 3.999991
v 6.666667 5.666667 3.999991
v 6.999987 7.999989 2.999998
v 6.999987 6.999997 3.999990
v 6.999987 6.999997 2.999998
v 7.999996 6.999997 3.999992
vt 0.9571 0.3354
vt 0.9929 0.3354
vt 0.9929 0.4878
vt 0.6429 0.6585
vt 0.6071 0.7195
vt 0.6071 0.5061
vt 0.3429 0.4939
vt 0.4143 0.4634
vt 0.5929 0.4939
vt 0.8929 0.5061
vt 0.8571 0.6585
vt 0.8571 0.5061
vt 0.9429 0.3232
vt 0.9071 0.1707
vt 0.9429 0.1707
vt 0.2571 0.4634
vt 0.0429 0.0366
vt 0.2571 0.0366
vt 0.8929 0.4634
vt 0.8571 0.4634
vt 0.6954 0.4490
vt 0.3071 0.0366
vt 0.3429 0.0366
vt 0.3429 0.4634
vt 0.6071 0.0366
vt 0.6071 0.4634
vt 0.0071 0.0366
vt 0.9571 0.1585
vt 0.9929 0.0061
vt 0.9929 0.1585
vt 0.4143 0.0366
vt 0.5929 0.0061
vt 0.5929 0.0366
vt 0.9071 0.3354
vt 0.9429 0.4878
vt 0.9071 0.4878
vt 0.3429 0.5976
vt 0.3071 0.7500
vt 0.3071 0.5366
vt 0.5929 0.7500
vt 0.5571 0.7500
vt 0.5571 0.5976
vt 0.2929 0.4634
vt 0.2929 0.0366
vt 0.8571 0.0366
vt 0.8929 0.0366
vt 0.5929 0.7927
vt 0.5571 0.7927
vt 0.5571 0.7622
vt 0.5929 0.7622
vt 0.2929 0.5366
vt 0.1857 0.9634
vt 0.1857 0.5891
vt 0.0429 0.4634
vt 0.0071 0.4109
vt 0.6429 0.0061
vt 0.6429 0.0366
vt 0.1857 0.5366
vt 0.2095 0.5467
vt 0.2571 0.5366
vt 0.9429 0.1585
vt 0.9071 0.1585
vt 0.9429 0.0061
vt 0.9071 0.8171
vt 0.9429 0.6646
vt 0.9429 0.8171
vt 0.9929 0.3232
vt 0.9571 0.1707
vt 0.9929 0.1707
vt 0.9429 0.6524
vt 0.9071 0.6524
vt 0.9429 0.5000
vt 0.6429 0.5061
vt 0.3929 0.7927
vt 0.3571 0.7927
vt 0.3571 0.7622
vt 0.3929 0.7622
vt 0.5929 0.4634
vt 0.9071 0.0061
vt 0.0071 0.9939
vt 0.0071 0.9634
vt 0.1798 0.9939
vt 0.8929 0.6535
vt 0.9071 0.6646
vt 0.6429 0.7195
vt 0.8571 0.7195
vt 0.0429 0.0061
vt 0.2571 0.0061
vt 0.3571 0.8354
vt 0.3571 0.8049
vt 0.3929 0.8049
vt 0.3929 0.8354
vt 0.3429 0.7927
vt 0.3071 0.7927
vt 0.3071 0.7622
vt 0.3429 0.7622
vt 0.5429 0.7927
vt 0.5071 0.7927
vt 0.5071 0.7622
vt 0.5429 0.7622
vt 0.6429 0.7500
vt 0.8571 0.7500
vt 0.8571 0.4939
vt 0.6429 0.4939
vt 0.4929 0.8049
vt 0.4929 0.8354
vt 0.4571 0.8354
vt 0.4571 0.8049
vt 0.3071 0.4634
vt 0.2095 0.9533
vt 0.4429 0.7927
vt 0.4071 0.7927
vt 0.4071 0.7622
vt 0.4429 0.7622
vt 0.4571 0.7927
vt 0.4571 0.7622
vt 0.4929 0.7622
vt 0.4929 0.7927
vt 0.8929 0.7195
vt 0.2929 0.9634
vt 0.2571 0.9634
vt 0.6429 0.4634
vt 0.2571 0.9939
vt 0.7429 0.7927
vt 0.7071 0.7927
vt 0.7071 0.7622
vt 0.7429 0.7622
vt 0.3429 0.7500
vt 0.6429 0.7927
vt 0.6071 0.7927
vt 0.6071 0.7622
vt 0.6429 0.7622
vt 0.3429 0.0061
vt 0.0071 0.5366
vt 0.0071 0.5061
vt 0.1798 0.5061
vt 0.9071 0.5000
vt 0.9571 0.3232
vt 0.5929 0.6026
vt 0.3429 0.5366
vt 0.5571 0.5366
vt 0.2571 0.4939
vt 0.0429 0.4939
vt 0.4429 0.8049
vt 0.4429 0.8354
vt 0.4071 0.8354
vt 0.4071 0.8049
vt 0.8571 0.7622
vt 0.8929 0.7622
vt 0.8929 0.7927
vt 0.8571 0.7927
vt 0.7929 0.7622
vt 0.7929 0.7927
vt 0.7571 0.7927
vt 0.7571 0.7622
vt 0.3429 0.5061
vt 0.5571 0.5061
vt 0.3071 0.8049
vt 0.3429 0.8049
vt 0.3429 0.8354
vt 0.3071 0.8354
vt 0.8571 0.0061
vt 0.8071 0.7927
vt 0.8071 0.7622
vt 0.8429 0.7622
vt 0.8429 0.7927
vt 0.6571 0.7622
vt 0.6929 0.7622
vt 0.6929 0.7927
vt 0.6571 0.7927
vt 0.5929 0.5366
vt 0.0071 0.4634
vt 0.2571 0.5061
vt 0.9571 0.4878
vt 0.9571 0.0061
vt 0.9429 0.3354
vt 0.9071 0.3232
vn 1.0000 0.0000 0.0000
vn -1.0000 -0.0000 0.0000
vn 0.0000 0.0000 -1.0000
vn 0.0000 -1.0000 0.0000
vn -0.0000 1.0000 0.0000
vn -0.0000 -0.0000 1.0000
usemtl palette.011
s off
f 5/1/1 4/2/1 24/3/1
f 3/4/2 6/5/2 1/6/2
f 6/7/3 24/8/3 1/9/3
f 8/10/2 14/11/2 7/12/2
f 14/13/3 9/14/3 7/15/3
f 25/16/4 16/17/4 13/18/4
f 20/19/5 21/20/5 23/21/5
f 27/22/3 28/23/3 26/24/3
f 35/25/5 23/21/5 34/26/5
f 25/16/4 12/27/4 16/17/4
f 37/28/2 48/29/2 36/30/2
f 48/31/3 38/32/3 36/33/3
f 40/34/6 37/35/6 39/36/6
f 40/37/1 38/38/1 41/39/1
f 45/40/1 44/41/1 51/42/1
f 48/43/4 25/16/4 24/44/4
f 28/23/3 48/31/3 24/8/3
f 50/45/5 27/46/5 20/19/5
f 2/47/4 1/48/4 4/49/4 5/50/4
f 35/51/6 12/52/6 57/53/6
f 49/54/4 57/55/4 25/16/4
f 56/56/5 50/45/5 59/57/5
f 46/58/6 58/59/6 57/53/6
f 60/60/6 35/51/6 58/59/6
f 13/61/6 3/62/6 5/63/6
f 12/64/1 9/65/1 16/66/1
f 42/67/2 46/68/2 49/69/2
f 49/70/3 51/71/3 42/72/3
f 2/73/2 3/4/2 1/6/2
f 8/74/4 7/75/4 9/76/4 10/77/4
f 1/9/3 24/8/3 4/78/3
f 5/63/6 3/62/6 2/79/6
f 8/80/6 10/81/6 12/52/6 11/82/6
f 8/10/2 11/83/2 14/11/2
f 12/64/1 10/84/1 9/65/1
f 17/85/2 3/4/2 14/11/2 15/86/2
f 14/87/4 3/88/4 13/18/4 16/17/4
f 21/89/2 20/90/2 26/91/2 19/92/2
f 6/93/5 17/94/5 19/95/5 26/96/5
f 21/97/3 19/98/3 17/99/3 18/100/3
f 18/101/2 17/85/2 15/86/2 22/102/2
f 18/103/5 22/104/5 23/21/5 21/20/5
f 33/105/2 31/106/2 32/107/2 34/108/2
f 24/44/4 25/16/4 13/18/4
f 20/109/3 27/22/3 26/24/3
f 6/5/2 3/4/2 17/85/2
f 6/7/3 26/24/3 24/8/3
f 26/24/3 28/23/3 24/8/3
f 12/52/6 29/110/6 11/82/6
f 15/111/5 30/112/5 32/113/5 31/114/5
f 15/115/6 31/116/6 33/117/6 22/118/6
f 15/86/2 14/11/2 11/83/2 30/119/2
f 35/51/6 29/110/6 12/52/6
f 35/25/5 20/19/5 23/21/5
f 35/51/6 34/120/6 32/121/6
f 34/26/5 23/21/5 33/122/5
f 30/123/6 11/82/6 29/110/6 32/121/6
f 37/124/4 36/125/4 38/126/4 39/127/4
f 35/51/6 32/121/6 29/110/6
f 22/104/5 33/122/5 23/21/5
f 40/37/1 39/128/1 38/38/1
f 43/129/4 42/130/4 44/131/4 45/132/4
f 48/31/3 41/133/3 38/32/3
f 43/134/6 45/135/6 47/136/6 46/58/6
f 42/72/3 51/71/3 44/137/3
f 43/138/2 46/68/2 42/67/2
f 47/139/1 45/40/1 51/42/1
f 40/37/1 54/140/1 52/141/1 51/42/1
f 49/54/4 25/16/4 40/142/4 51/143/4
f 28/144/1 27/145/1 50/146/1 53/147/1
f 28/148/5 53/149/5 54/150/5 41/151/5
f 54/152/3 53/153/3 50/154/3 55/155/3
f 54/140/1 55/156/1 56/157/1 52/141/1
f 60/158/1 61/159/1 59/160/1 35/161/1
f 56/56/5 55/162/5 50/45/5
f 54/140/1 40/37/1 41/39/1
f 48/31/3 28/23/3 41/133/3
f 25/16/4 57/55/4 12/27/4
f 58/59/6 35/51/6 57/53/6
f 59/57/5 50/45/5 20/19/5
f 35/25/5 59/57/5 20/19/5
f 47/136/6 58/59/6 46/58/6
f 52/163/5 61/164/5 60/165/5 62/166/5
f 59/167/6 61/168/6 52/169/6 56/170/6
f 47/139/1 51/42/1 52/141/1 62/171/1
f 49/54/4 46/172/4 57/55/4
f 58/59/6 47/136/6 62/173/6 60/60/6
f 13/174/1 5/1/1 24/3/1
f 37/28/2 25/175/2 48/29/2
f 40/34/6 25/176/6 37/35/6
f 14/13/3 16/177/3 9/14/3
o propPianoBench
v -8.000000 5.000000 3.000001
v -8.000000 -0.000000 3.000000
v -8.000000 -0.000001 4.000000
v -8.000000 5.000000 -2.999999
v -8.000000 0.000001 -4.000000
v -8.000000 0.000000 -3.000000
v -8.000000 7.000000 4.000001
v -8.000000 7.000000 3.000001
v -8.000000 7.000000 -2.999999
v -8.000000 7.000000 -3.999999
v -8.000000 8.000000 3.000001
v -8.000000 8.000001 -2.999999
v -7.000000 8.000000 4.000001
v -7.000000 7.000000 3.000001
v -7.000000 7.000000 4.000001
v -7.000000 8.000000 3.000001
v -7.000000 8.000001 -2.999999
v -7.000000 7.000000 -3.999999
v -7.000000 7.000000 -2.999999
v -7.000000 8.000001 -3.999999
v 7.000000 5.000000 4.000001
v 7.000000 -0.000000 3.000000
v 7.000000 -0.000001 4.000000
v 7.000000 5.000000 3.000001
v 7.000000 5.000000 -2.999999
v 7.000000 0.000001 -4.000000
v 7.000000 0.000000 -3.000000
v 7.000000 5.000000 -3.999999
v -7.000000 -0.000001 4.000000
v -7.000000 -0.000000 3.000000
v -7.000000 5.000000 4.000001
v -7.000000 5.000000 3.000001
v -7.000000 0.000000 -3.000000
v -7.000000 0.000001 -4.000000
v -7.000000 5.000000 -2.999999
v -7.000000 5.000000 -3.999999
v 7.000000 7.000000 4.000001
v 7.000000 7.000000 3.000001
v 7.000000 8.000000 4.000001
v 7.000000 8.000000 3.000001
v 7.000000 7.000000 -2.999999
v 7.000000 7.000000 -3.999999
v 7.000000 8.000001 -2.999999
v 7.000000 8.000001 -3.999999
v 8.000000 -0.000001 4.000000
v 8.000000 -0.000000 3.000000
v 8.000000 5.000000 3.000001
v 8.000000 0.000000 -3.000000
v 8.000000 0.000001 -4.000000
v 8.000000 5.000000 -2.999999
v 8.000000 7.000000 4.000001
v 8.000000 7.000000 3.000001
v 8.000000 7.000000 -2.999999
v 8.000000 7.000000 -3.999999
v 8.000000 8.000000 3.000001
v 8.000000 8.000001 -2.999999
v -7.000000 -0.000001 4.000000
v -8.000000 7.000000 4.000001
v -8.000000 -0.000001 4.000000
v -7.000000 5.000000 4.000001
v -7.000000 7.000000 4.000001
v 7.000000 5.000000 4.000001
v 7.000000 7.000000 4.000001
v -7.000000 8.000000 4.000001
v 7.000000 8.000000 4.000001
v 8.000000 -0.000001 4.000000
v 7.000000 -0.000001 4.000000
v 8.000000 7.000000 4.000001
v -7.000000 7.000000 3.000001
v -8.000000 8.000000 3.000001
v -8.000000 7.000000 3.000001
v -7.000000 8.000000 3.000001
v 8.000000 7.000000 3.000001
v 7.000000 8.000000 3.000001
v 7.000000 7.000000 3.000001
v 8.000000 8.000000 3.000001
v -7.000000 0.000000 -3.000000
v -8.000000 5.000000 -2.999999
v -8.000000 0.000000 -3.000000
v -7.000000 5.000000 -2.999999
v 8.000000 0.000000 -3.000000
v 7.000000 5.000000 -2.999999
v 7.000000 0.000000 -3.000000
v 8.000000 5.000000 -2.999999
v -8.000000 -0.000000 3.000000
v -8.000000 5.000000 3.000001
v -7.000000 -0.000000 3.000000
v -7.000000 5.000000 3.000001
v 7.000000 -0.000000 3.000000
v 7.000000 5.000000 3.000001
v 8.000000 -0.000000 3.000000
v 8.000000 5.000000 3.000001
v -8.000000 7.000000 -2.999999
v -8.000000 8.000001 -2.999999
v -7.000000 7.000000 -2.999999
v -7.000000 8.000001 -2.999999
v 7.000000 7.000000 -2.999999
v 7.000000 8.000001 -2.999999
v 8.000000 7.000000 -2.999999
v 8.000000 8.000001 -2.999999
v -8.000000 0.000001 -4.000000
v -8.000000 7.000000 -3.999999
v -7.000000 0.000001 -4.000000
v -7.000000 5.000000 -3.999999
v -7.000000 7.000000 -3.999999
v 7.000000 5.000000 -3.999999
v -7.000000 8.000001 -3.999999
v 7.000000 7.000000 -3.999999
v 7.000000 8.000001 -3.999999
v 7.000000 0.000001 -4.000000
v 8.000000 0.000001 -4.000000
v 8.000000 7.000000 -3.999999
v -8.000000 -0.000000 3.000000
v -7.000000 -0.000001 4.000000
v -8.000000 -0.000001 4.000000
v -7.000000 -0.000000 3.000000
v 7.000000 -0.000000 3.000000
v 8.000000 -0.000001 4.000000
v 7.000000 -0.000001 4.000000
v 8.000000 -0.000000 3.000000
v -8.000000 0.000001 -4.000000
v -7.000000 0.000000 -3.000000
v -8.000000 0.000000 -3.000000
v -7.000000 0.000001 -4.000000
v 7.000000 0.000001 -4.000000
v 8.000000 0.000000 -3.000000
v 7.000000 0.000000 -3.000000
v 8.000000 0.000001 -4.000000
v -7.000000 5.000000 3.000001
v 7.000000 5.000000 4.000001
v -7.000000 5.000000 4.000001
v 7.000000 5.000000 3.000001
v -8.000000 5.000000 -2.999999
v -8.000000 5.000000 3.000001
v 8.000000 5.000000 3.000001
v -7.000000 5.000000 -2.999999
v 7.000000 5.000000 -2.999999
v 8.000000 5.000000 -2.999999
v -7.000000 5.000000 -3.999999
v 7.000000 5.000000 -3.999999
v -8.000000 7.000000 4.000001
v -7.000000 7.000000 4.000001
v -8.000000 7.000000 3.000001
v -7.000000 7.000000 3.000001
v 7.000000 7.000000 4.000001
v 8.000000 7.000000 4.000001
v 7.000000 7.000000 3.000001
v 8.000000 7.000000 3.000001
v -8.000000 7.000000 -2.999999
v -7.000000 7.000000 -2.999999
v -8.000000 7.000000 -3.999999
v -7.000000 7.000000 -3.999999
v 7.000000 7.000000 -2.999999
v 8.000000 7.000000 -2.999999
v 7.000000 7.000000 -3.999999
v 8.000000 7.000000 -3.999999
v -7.000000 8.000000 4.000001
v 7.000000 8.000000 4.000001
v -7.000000 8.000000 3.000001
v 7.000000 8.000000 3.000001
v -8.000000 8.000000 3.000001
v -8.000000 8.000001 -2.999999
v 8.000000 8.000000 3.000001
v -7.000000 8.000001 -2.999999
v 7.000000 8.000001 -2.999999
v 8.000000 8.000001 -2.999999
v -7.000000 8.000001 -3.999999
v 7.000000 8.000001 -3.999999
vt 0.9746 0.5000
vt 0.9746 0.5000
vt 0.9746 0.5000
vt 0.9746 0.5000
vt 0.9746 0.5000
vt 0.9746 0.5000
vt 0.9746 0.5000
vt 0.9746 0.5000
vt 0.9746 0.5000
vt 0.9746 0.5000
vt 0.9707 0.5000
vt 0.9707 0.5000
vt 0.9707 0.5000
vt 0.9707 0.5000
vt 0.9707 0.5000
vt 0.9707 0.5000
vt 0.9707 0.5000
vt 0.9707 0.5000
vt 0.9707 0.5000
vt 0.9707 0.5000
vt 0.9707 0.5000
vt 0.9707 0.5000
vt 0.9746 0.5000
vt 0.9746 0.5000
vt 0.9746 0.5000
vt 0.9746 0.5000
vt 0.9746 0.5000
vt 0.9746 0.5000
vt 0.9746 0.5000
vt 0.9746 0.5000
vt 0.9746 0.5000
vt 0.9746 0.5000
vt 0.9746 0.5000
vt 0.9746 0.5000
vt 0.9746 0.5000
vt 0.9746 0.5000
vt 0.9746 0.5000
vt 0.9746 0.5000
vt 0.9707 0.5000
vt 0.9707 0.5000
vt 0.9707 0.5000
vt 0.9707 0.5000
vt 0.9707 0.5000
vt 0.9707 0.5000
vt 0.9707 0.5000
vt 0.9707 0.5000
vt 0.9746 0.5000
vt 0.9746 0.5000
vt 0.9746 0.5000
vt 0.9746 0.5000
vt 0.9746 0.5000
vt 0.9746 0.5000
vt 0.9746 0.5000
vt 0.9746 0.5000
vt 0.9746 0.5000
vt 0.9746 0.5000
vt 0.9707 0.5000
vt 0.9707 0.5000
vt 0.9707 0.5000
vt 0.9707 0.5000
vt 0.9746 0.5000
vt 0.9746 0.5000
vt 0.9746 0.5000
vt 0.9746 0.5000
vt 0.9746 0.5000
vt 0.9746 0.5000
vt 0.9707 0.5000
vt 0.9707 0.5000
vt 0.9707 0.5000
vt 0.9746 0.5000
vt 0.9707 0.5000
vt 0.9746 0.5000
vt 0.9746 0.5000
vt 0.9746 0.5000
vt 0.9707 0.5000
vt 0.9707 0.5000
vt 0.9707 0.5000
vt 0.9707 0.5000
vt 0.9707 0.5000
vt 0.9707 0.5000
vt 0.9707 0.5000
vt 0.9707 0.5000
vt 0.9746 0.5000
vt 0.9746 0.5000
vt 0.9746 0.5000
vt 0.9746 0.5000
vt 0.9746 0.5000
vt 0.9746 0.5000
vt 0.9746 0.5000
vt 0.9746 0.5000
vt 0.9746 0.5000
vt 0.9746 0.5000
vt 0.9746 0.5000
vt 0.9746 0.5000
vt 0.9746 0.5000
vt 0.9746 0.5000
vt 0.9746 0.5000
vt 0.9746 0.5000
vt 0.9707 0.5000
vt 0.9707 0.5000
vt 0.9707 0.5000
vt 0.9707 0.5000
vt 0.9707 0.5000
vt 0.9707 0.5000
vt 0.9707 0.5000
vt 0.9707 0.5000
vt 0.9746 0.5000
vt 0.9746 0.5000
vt 0.9746 0.5000
vt 0.9746 0.5000
vt 0.9746 0.5000
vt 0.9746 0.5000
vt 0.9707 0.5000
vt 0.9707 0.5000
vt 0.9707 0.5000
vt 0.9746 0.5000
vt 0.9707 0.5000
vt 0.9746 0.5000
vt 0.9746 0.5000
vt 0.9746 0.5000
vt 0.9746 0.5000
vt 0.9746 0.5000
vt 0.9746 0.5000
vt 0.9746 0.5000
vt 0.9746 0.5000
vt 0.9746 0.5000
vt 0.9746 0.5000
vt 0.9746 0.5000
vt 0.9746 0.5000
vt 0.9746 0.5000
vt 0.9746 0.5000
vt 0.9746 0.5000
vt 0.9746 0.5000
vt 0.9746 0.5000
vt 0.9746 0.5000
vt 0.9746 0.5000
vt 0.9746 0.5000
vt 0.9746 0.5000
vt 0.9746 0.5000
vt 0.9746 0.5000
vt 0.9746 0.5000
vt 0.9746 0.5000
vt 0.9746 0.5000
vt 0.9746 0.5000
vt 0.9746 0.5000
vt 0.9746 0.5000
vt 0.9746 0.5000
vt 0.9746 0.5000
vt 0.9746 0.5000
vt 0.9746 0.5000
vt 0.9746 0.5000
vt 0.9746 0.5000
vt 0.9746 0.5000
vt 0.9746 0.5000
vt 0.9746 0.5000
vt 0.9746 0.5000
vt 0.9746 0.5000
vt 0.9746 0.5000
vt 0.9746 0.5000
vt 0.9746 0.5000
vt 0.9746 0.5000
vt 0.9746 0.5000
vt 0.9746 0.5000
vt 0.9746 0.5000
vt 0.9707 0.5000
vt 0.9707 0.5000
vt 0.9707 0.5000
vt 0.9707 0.5000
vt 0.9707 0.5000
vt 0.9707 0.5000
vt 0.9707 0.5000
vt 0.9707 0.5000
vt 0.9707 0.5000
vt 0.9707 0.5000
vt 0.9707 0.5000
vt 0.9707 0.5000
vn -1.0000 0.0000 0.0000
vn 1.0000 0.0000 0.0000
vn 0.0000 -0.0000 1.0000
vn 0.0000 0.0000 -1.0000
vn 0.0000 -1.0000 -0.0000
vn 0.0000 1.0000 0.0000
usemtl palette.011_propPianoBench.png
s 1
f 63/178/7 64/179/7 65/180/7
f 66/181/7 67/182/7 68/183/7
f 69/184/7 63/178/7 65/180/7
f 69/184/7 66/181/7 63/178/7
f 70/185/7 66/181/7 69/184/7
f 71/186/7 67/182/7 66/181/7
f 71/186/7 66/181/7 70/185/7
f 72/187/7 67/182/7 71/186/7
f 73/188/7 71/189/7 70/190/7
f 74/191/7 71/189/7 73/188/7
f 75/192/7 76/193/7 77/194/7
f 78/195/7 76/193/7 75/192/7
f 79/196/7 80/197/7 81/198/7
f 82/199/7 80/197/7 79/196/7
f 83/200/7 84/201/7 85/202/7
f 86/203/7 84/201/7 83/200/7
f 87/204/7 88/205/7 89/206/7
f 90/207/7 88/205/7 87/204/7
f 91/208/8 92/209/8 93/210/8
f 93/210/8 92/209/8 94/211/8
f 95/212/8 96/213/8 97/214/8
f 97/214/8 96/213/8 98/215/8
f 99/216/8 100/217/8 101/218/8
f 101/218/8 100/217/8 102/219/8
f 103/220/8 104/221/8 105/222/8
f 105/222/8 104/221/8 106/223/8
f 107/224/8 108/225/8 109/226/8
f 110/227/8 111/228/8 112/229/8
f 107/224/8 109/226/8 113/230/8
f 109/226/8 112/229/8 113/230/8
f 113/230/8 112/229/8 114/231/8
f 112/229/8 111/228/8 115/232/8
f 114/231/8 112/229/8 115/232/8
f 115/232/8 111/228/8 116/233/8
f 114/234/8 115/235/8 117/236/8
f 117/236/8 115/235/8 118/237/8
f 119/238/9 120/239/9 121/240/9
f 122/241/9 120/239/9 119/238/9
f 123/242/9 120/239/9 122/241/9
f 124/243/9 123/242/9 122/241/9
f 125/244/9 126/245/9 123/246/9
f 125/247/9 123/242/9 124/243/9
f 127/248/9 126/245/9 125/244/9
f 128/249/9 124/243/9 129/250/9
f 128/249/9 125/247/9 124/243/9
f 130/251/9 125/247/9 128/249/9
f 131/252/9 132/253/9 133/254/9
f 134/255/9 132/253/9 131/252/9
f 135/256/9 136/257/9 137/258/9
f 138/259/9 136/257/9 135/256/9
f 139/260/9 140/261/9 141/262/9
f 142/263/9 140/261/9 139/260/9
f 143/264/9 144/265/9 145/266/9
f 146/267/9 144/265/9 143/264/9
f 147/268/10 148/269/10 149/270/10
f 149/270/10 148/269/10 150/271/10
f 151/272/10 152/273/10 153/274/10
f 153/274/10 152/273/10 154/275/10
f 155/276/10 156/277/10 157/278/10
f 157/278/10 156/277/10 158/279/10
f 159/280/10 160/281/10 161/282/10
f 161/282/10 160/281/10 162/283/10
f 163/284/10 164/285/10 165/286/10
f 165/286/10 164/285/10 166/287/10
f 166/287/10 164/285/10 167/288/10
f 166/287/10 167/288/10 168/289/10
f 167/290/10 169/291/10 170/292/10
f 168/289/10 167/288/10 170/293/10
f 170/292/10 169/291/10 171/294/10
f 172/295/10 168/289/10 173/296/10
f 168/289/10 170/293/10 173/296/10
f 173/296/10 170/293/10 174/297/10
f 175/298/11 176/299/11 177/300/11
f 178/301/11 176/299/11 175/298/11
f 179/302/11 180/303/11 181/304/11
f 182/305/11 180/303/11 179/302/11
f 183/306/11 184/307/11 185/308/11
f 186/309/11 184/307/11 183/306/11
f 187/310/11 188/311/11 189/312/11
f 190/313/11 188/311/11 187/310/11
f 191/314/11 192/315/11 193/316/11
f 194/317/11 192/315/11 191/314/11
f 195/318/11 191/314/11 196/319/11
f 195/318/11 197/320/11 194/317/11
f 195/318/11 194/317/11 191/314/11
f 198/321/11 197/320/11 195/318/11
f 199/322/11 197/320/11 198/321/11
f 200/323/11 197/320/11 199/322/11
f 201/324/11 199/322/11 198/321/11
f 202/325/11 199/322/11 201/324/11
f 203/326/12 204/327/12 205/328/12
f 205/328/12 204/327/12 206/329/12
f 207/330/12 208/331/12 209/332/12
f 209/332/12 208/331/12 210/333/12
f 211/334/12 212/335/12 213/336/12
f 213/336/12 212/335/12 214/337/12
f 215/338/12 216/339/12 217/340/12
f 217/340/12 216/339/12 218/341/12
f 219/342/12 220/343/12 221/344/12
f 221/344/12 220/343/12 222/345/12
f 223/346/12 221/344/12 224/347/12
f 222/345/12 225/348/12 224/347/12
f 221/344/12 222/345/12 224/347/12
f 224/347/12 225/348/12 226/349/12
f 226/349/12 225/348/12 227/350/12
f 227/350/12 225/348/12 228/351/12
f 226/349/12 227/350/12 229/352/12
f 229/352/12 227/350/12 230/353/12
