# Blender v2.78 (sub 0) OBJ File: ''
# www.blender.org
mtllib propCompMouse.mtl
o copy_propCompMouse.001
v -1.500003 -0.000001 -2.000004
v -1.500003 -0.000002 1.999999
v -1.500003 1.999998 -2.000003
v -1.500003 1.999997 1.999999
v 1.499998 -0.000001 -2.000004
v 1.499998 -0.000002 1.999999
v 1.499998 1.999998 -2.000003
v 1.499998 1.999997 1.999999
vt 0.0217 0.9773
vt 0.0217 0.5227
vt 0.2391 0.5227
vt 0.2391 0.9773
vt 0.5000 0.5227
vt 0.5000 0.9773
vt 0.2826 0.9773
vt 0.2826 0.5227
vt 0.7174 0.4773
vt 0.3913 0.4773
vt 0.3913 0.0227
vt 0.7174 0.0227
vt 0.0217 0.0227
vt 0.3478 0.0227
vt 0.3478 0.4773
vt 0.0217 0.4773
vt 0.7609 0.0227
vt 0.9783 0.0227
vt 0.9783 0.3636
vt 0.7609 0.3636
vt 0.5435 0.5227
vt 0.7609 0.5227
vt 0.7609 0.8636
vt 0.5435 0.8636
vn -1.0000 0.0000 0.0000
vn 1.0000 0.0000 0.0000
vn 0.0000 -1.0000 -0.0000
vn 0.0000 1.0000 0.0000
vn 0.0000 0.0000 -1.0000
vn 0.0000 -0.0000 1.0000
usemtl palette.004
s off
f 1/1/1 2/2/1 4/3/1 3/4/1
f 7/5/2 8/6/2 6/7/2 5/8/2
f 1/9/3 5/10/3 6/11/3 2/12/3
f 4/13/4 8/14/4 7/15/4 3/16/4
f 1/17/5 3/18/5 7/19/5 5/20/5
f 6/21/6 8/22/6 4/23/6 2/24/6
o propCompMouse
v -1.500000 2.000000 2.000000
v -1.500000 0.000000 0.000000
v -1.500000 -0.000000 2.000000
v -1.500000 2.000000 0.000000
v -1.500000 0.000000 -2.000000
v -1.500000 2.000000 -2.000000
v 1.500000 -0.000000 2.000000
v 1.500000 0.000000 0.000000
v 1.500000 2.000000 2.000000
v 1.500000 0.000000 -2.000000
v 1.500000 2.000000 0.000000
v 1.500000 2.000000 -2.000000
v 1.500000 -0.000000 2.000000
v -1.500000 2.000000 2.000000
v -1.500000 -0.000000 2.000000
v 1.500000 2.000000 2.000000
v -1.500000 0.000000 -2.000000
v -1.500000 2.000000 -2.000000
v -0.500000 1.000000 -2.000000
v -0.500000 2.000000 -2.000000
v 0.500000 1.000000 -2.000000
v 0.500000 2.000000 -2.000000
v 1.500000 0.000000 -2.000000
v 1.500000 2.000000 -2.000000
v -1.500000 0.000000 0.000000
v 1.500000 -0.000000 2.000000
v -1.500000 -0.000000 2.000000
v 1.500000 0.000000 0.000000
v -1.500000 0.000000 -2.000000
v 1.500000 0.000000 -2.000000
v -1.500000 2.000000 2.000000
v 1.500000 2.000000 2.000000
v -1.500000 2.000000 0.000000
v -0.500000 2.000000 0.000000
v 0.500000 2.000000 0.000000
v 1.500000 2.000000 0.000000
v -1.500000 2.000000 -2.000000
v -0.500000 2.000000 -2.000000
v 0.500000 2.000000 -2.000000
v 1.500000 2.000000 -2.000000
vt 0.9785 0.5000
vt 0.9785 0.5000
vt 0.9785 0.5000
vt 0.9746 0.5000
vt 0.9746 0.5000
vt 0.9746 0.5000
vt 0.9785 0.5000
vt 0.9746 0.5000
vt 0.9785 0.5000
vt 0.9785 0.5000
vt 0.9785 0.5000
vt 0.9746 0.5000
vt 0.9746 0.5000
vt 0.9746 0.5000
vt 0.9785 0.5000
vt 0.9746 0.5000
vt 0.9785 0.5000
vt 0.9785 0.5000
vt 0.9785 0.5000
vt 0.9785 0.5000
vt 0.9746 0.5000
vt 0.9746 0.5000
vt 0.9746 0.5000
vt 0.9746 0.5000
vt 0.9746 0.5000
vt 0.9707 0.5000
vt 0.9707 0.5000
vt 0.9707 0.5000
vt 0.9707 0.5000
vt 0.9746 0.5000
vt 0.9746 0.5000
vt 0.9746 0.5000
vt 0.9785 0.5000
vt 0.9785 0.5000
vt 0.9785 0.5000
vt 0.9785 0.5000
vt 0.9746 0.5000
vt 0.9746 0.5000
vt 0.9746 0.5000
vt 0.9746 0.5000
vt 0.9785 0.5000
vt 0.9785 0.5000
vt 0.9785 0.5000
vt 0.9785 0.5000
vt 0.9785 0.5000
vt 0.9785 0.5000
vt 0.9746 0.5000
vt 0.9746 0.5000
vt 0.9746 0.5000
vt 0.9707 0.5000
vt 0.9707 0.5000
vt 0.9707 0.5000
vt 0.9746 0.5000
vt 0.9746 0.5000
vt 0.9746 0.5000
vt 0.9746 0.5000
vt 0.9707 0.5000
vt 0.9746 0.5000
vn -1.0000 0.0000 0.0000
vn 1.0000 0.0000 0.0000
vn 0.0000 -0.0000 1.0000
vn -0.0000 0.0000 -1.0000
vn 0.0000 -1.0000 -0.0000
vn 0.0000 1.0000 0.0000
usemtl palette.004_propCompMouse.png
s 1
f 9/25/7 10/26/7 11/27/7
f 12/28/7 13/29/7 10/30/7
f 12/31/7 10/26/7 9/25/7
f 14/32/7 13/29/7 12/28/7
f 15/33/8 16/34/8 17/35/8
f 16/36/8 18/37/8 19/38/8
f 17/35/8 16/34/8 19/39/8
f 19/38/8 18/37/8 20/40/8
f 21/41/9 22/42/9 23/43/9
f 24/44/9 22/42/9 21/41/9
f 25/45/10 26/46/10 27/47/10
f 27/47/10 26/46/10 28/48/10
f 25/45/10 27/47/10 29/49/10
f 27/50/10 28/51/10 29/52/10
f 29/52/10 28/51/10 30/53/10
f 25/45/10 29/49/10 31/54/10
f 29/49/10 30/55/10 31/54/10
f 31/54/10 30/55/10 32/56/10
f 33/57/11 34/58/11 35/59/11
f 36/60/11 34/58/11 33/57/11
f 37/61/11 36/62/11 33/63/11
f 38/64/11 36/62/11 37/61/11
f 39/65/12 40/66/12 41/67/12
f 41/67/12 40/66/12 42/68/12
f 42/68/12 40/66/12 43/69/12
f 43/69/12 40/66/12 44/70/12
f 41/71/12 42/72/12 45/73/12
f 42/74/12 43/75/12 46/76/12
f 45/73/12 42/72/12 46/77/12
f 43/78/12 44/79/12 47/80/12
f 46/76/12 43/75/12 47/81/12
f 47/80/12 44/79/12 48/82/12
