# Blender v2.78 (sub 0) OBJ File: ''
# www.blender.org
mtllib charEyesStandard.mtl
o copy_charEyesStandard.001
v -9.000015 1.999996 0.000000
v -8.000011 0.999992 0.000000
v -8.000011 1.999996 0.000000
v -6.000004 -0.000012 -0.000000
v -6.000004 0.999992 0.000000
v -3.000011 -0.000012 -0.000000
v -3.000011 0.999992 0.000000
v -3.125000 3.781250 0.000001
v -2.000008 1.999996 0.000000
v -2.000008 0.999992 0.000000
v -2.000008 3.000000 -1.000003
v -2.000008 3.000000 -0.000000
v 1.999989 3.000000 -1.000003
v -1.000004 3.000000 0.000000
v 0.999985 3.000000 0.000000
v -9.000015 1.999996 0.999985
v -8.000011 0.999992 0.999985
v -8.000011 1.999996 0.999985
v -6.000004 -0.000012 0.999985
v -6.000004 0.999992 0.999985
v -3.000011 -0.000012 0.999985
v -3.000011 0.999992 0.999985
v -2.000008 0.999992 0.999985
v -2.000008 1.999996 0.999985
v -1.000004 1.999996 0.000000
v -1.000004 1.999996 0.999985
v -9.000015 4.999988 0.000001
v -8.000011 4.999988 0.000001
v -8.000011 5.999992 0.000001
v -2.000008 5.999992 0.000001
v -2.000008 3.999985 -1.000003
v -2.000008 3.999984 -0.000000
v -2.000008 4.999988 0.000001
v 1.999989 3.999985 -1.000003
v -1.000004 3.999984 0.000001
v 0.999985 3.999984 0.000001
v -9.000015 4.999988 0.999986
v -8.000011 4.999988 0.999986
v -8.000011 5.999992 0.999986
v -2.000008 5.999992 0.999986
v -2.000008 4.999988 0.999986
v -1.000004 4.999988 0.000001
v -1.000004 4.999988 0.999986
v 0.999985 1.999996 0.000000
v 1.999989 0.999992 0.000000
v 1.999989 1.999996 0.000000
v 2.999992 -0.000012 -0.000000
v 2.999992 0.999992 0.000000
v 3.398438 3.371093 0.000001
v 5.999985 0.999992 0.000000
v 7.999992 1.999996 0.000000
v 0.999985 1.999996 0.999985
v 1.999989 0.999992 0.999985
v 1.999989 1.999996 0.999985
v 2.999992 -0.000012 0.999985
v 5.999985 -0.000012 0.999985
v 5.999985 -0.000012 -0.000000
v 2.999992 0.999992 0.999985
v 5.999985 0.999992 0.999985
v 7.999992 0.999992 0.000000
v 7.999992 1.999996 0.999985
v 7.999992 0.999992 0.999985
v 8.999996 1.999996 0.000000
v 8.999996 1.999996 0.999985
v 0.999985 4.999988 0.000001
v 1.999989 3.312500 0.000001
v 1.999989 3.999984 -0.000000
v 1.999989 4.999988 0.000001
v 1.999989 5.999992 0.000001
v 1.999989 3.000000 -0.000000
v 7.999992 4.999988 0.000001
v 8.999996 4.999988 0.000001
v 0.999985 4.999988 0.999986
v 1.999989 4.999988 0.999986
v 1.999989 5.999992 0.999986
v 7.999992 5.999992 0.000001
v 7.999992 5.999992 0.999986
v 7.999992 4.999988 0.999986
v 8.999996 4.999988 0.999986
vt 0.1196 0.0619
vt 0.0652 0.1649
vt 0.0652 0.0619
vt 0.2164 0.3131
vt 0.1196 0.3711
vt 0.0652 0.3196
vt 0.7826 0.0103
vt 0.8370 0.0619
vt 0.8370 0.1649
vt 0.0652 0.3711
vt 0.9348 0.6907
vt 0.9891 0.6907
vt 0.9348 0.7423
vt 0.9348 0.0103
vt 0.9891 0.0103
vt 0.9348 0.1134
vt 0.6304 0.1649
vt 0.5761 0.0619
vt 0.6304 0.0619
vt 0.9130 0.6907
vt 0.8587 0.5361
vt 0.9130 0.5361
vt 0.1630 0.8763
vt 0.2174 0.9278
vt 0.1630 0.9278
vt 0.7609 0.8247
vt 0.7065 0.8247
vt 0.7065 0.7732
vt 0.5761 0.3711
vt 0.6304 0.3196
vt 0.6304 0.3711
vt 0.6848 0.1649
vt 0.6848 0.3196
vt 0.3370 0.0619
vt 0.2826 0.0619
vt 0.7826 0.2887
vt 0.8370 0.2371
vt 0.7826 0.3918
vt 0.7826 0.4639
vt 0.8370 0.4639
vt 0.8370 0.6701
vt 0.2826 0.3711
vt 0.2283 0.3711
vt 0.3370 0.3711
vt 0.8587 0.3608
vt 0.9130 0.3608
vt 0.9130 0.5155
vt 0.9891 0.8144
vt 0.9348 0.7629
vt 0.9891 0.7629
vt 0.7065 0.0103
vt 0.7609 0.3196
vt 0.7065 0.3196
vt 0.4130 0.3711
vt 0.7609 0.6701
vt 0.7065 0.7217
vt 0.9348 0.4742
vt 0.9891 0.4742
vt 0.9348 0.5258
vt 0.7065 0.6701
vt 0.3587 0.3711
vt 0.4130 0.0619
vt 0.5419 0.5669
vt 0.4130 0.7010
vt 0.4130 0.5464
vt 0.4674 0.8041
vt 0.4130 0.8041
vt 0.3587 0.7010
vt 0.3587 0.5464
vt 0.8587 0.3402
vt 0.9130 0.2887
vt 0.9130 0.3402
vt 0.0870 0.8763
vt 0.1413 0.8763
vt 0.0870 0.9278
vt 0.8587 0.0103
vt 0.9130 0.0103
vt 0.8587 0.1649
vt 0.0652 0.4948
vt 0.2826 0.5464
vt 0.2826 0.7010
vt 0.2283 0.4948
vt 0.2826 0.4948
vt 0.2283 0.8041
vt 0.2826 0.8041
vt 0.8587 0.7113
vt 0.9130 0.8144
vt 0.8587 0.8144
vt 0.7065 0.9175
vt 0.7609 0.9691
vt 0.7065 0.9691
vt 0.7826 0.2371
vt 0.6304 0.4948
vt 0.5761 0.4948
vt 0.5761 0.4433
vt 0.5387 0.4948
vt 0.5217 0.4948
vt 0.6848 0.4948
vt 0.6304 0.8041
vt 0.9130 0.2371
vt 0.2283 0.4433
vt 0.9348 0.3299
vt 0.9891 0.3814
vt 0.9348 0.3814
vt 0.7826 0.6907
vt 0.8370 0.6907
vt 0.8370 0.8454
vt 0.9891 0.9588
vt 0.9348 0.9588
vt 0.9891 0.9072
vt 0.0109 0.8041
vt 0.0652 0.8041
vt 0.9891 0.1340
vt 0.9348 0.2371
vt 0.9348 0.1340
vt 0.1739 0.3711
vt 0.4130 0.4227
vt 0.5761 0.4227
vt 0.1196 0.4227
vt 0.1739 0.4227
vt 0.0109 0.3196
vt 0.0109 0.1649
vt 0.8370 0.2165
vt 0.7826 0.2165
vt 0.9891 0.4021
vt 0.9891 0.4536
vt 0.9348 0.4536
vt 0.9348 0.4021
vt 0.9891 0.7423
vt 0.5652 0.8763
vt 0.5652 0.9278
vt 0.5109 0.9278
vt 0.5109 0.8763
vt 0.9891 0.1134
vt 0.9130 0.8351
vt 0.9130 0.8866
vt 0.8587 0.8866
vt 0.8587 0.8351
vt 0.8587 0.6907
vt 0.2174 0.8763
vt 0.4130 0.9278
vt 0.3587 0.9278
vt 0.3587 0.8763
vt 0.4130 0.8763
vt 0.4891 0.8763
vt 0.4891 0.9278
vt 0.4348 0.9278
vt 0.4348 0.8763
vt 0.8370 0.9381
vt 0.8370 0.9897
vt 0.7826 0.9897
vt 0.7826 0.9381
vt 0.8370 0.4433
vt 0.7826 0.4433
vt 0.9891 0.2371
vt 0.2283 0.4227
vt 0.2826 0.4227
vt 0.7826 0.6701
vt 0.9130 0.9072
vt 0.9130 0.9588
vt 0.8587 0.9588
vt 0.8587 0.9072
vt 0.9348 0.8144
vt 0.7609 0.0103
vt 0.9891 0.6186
vt 0.9891 0.6701
vt 0.9348 0.6701
vt 0.9348 0.6186
vt 0.3587 0.0619
vt 0.9891 0.5258
vt 0.4674 0.4948
vt 0.4674 0.4433
vt 0.5217 0.4433
vt 0.8370 0.0103
vt 0.4130 0.4948
vt 0.0652 0.8763
vt 0.0652 0.9278
vt 0.0109 0.9278
vt 0.0109 0.8763
vt 0.1413 0.9278
vt 0.9891 0.5979
vt 0.9348 0.5979
vt 0.9348 0.5464
vt 0.9891 0.5464
vt 0.9130 0.1649
vt 0.6413 0.8763
vt 0.6413 0.9278
vt 0.5870 0.9278
vt 0.5870 0.8763
vt 0.3370 0.5464
vt 0.3370 0.7010
vt 0.8370 0.8660
vt 0.8370 0.9175
vt 0.7826 0.9175
vt 0.7826 0.8660
vt 0.9130 0.7113
vt 0.7609 0.9175
vt 0.2935 0.8763
vt 0.2935 0.9278
vt 0.2391 0.9278
vt 0.2391 0.8763
vt 0.9891 0.8866
vt 0.9348 0.8866
vt 0.9348 0.8351
vt 0.9721 0.8351
vt 0.9130 0.1856
vt 0.8587 0.1856
vt 0.6304 0.4433
vt 0.6848 0.8041
vt 0.9891 0.3299
vt 0.7609 0.6495
vt 0.7065 0.6495
vt 0.7065 0.3402
vt 0.7609 0.3402
vt 0.0652 0.4433
vt 0.7609 0.8454
vt 0.7609 0.8969
vt 0.7065 0.8969
vt 0.7065 0.8454
vt 0.2283 0.8557
vt 0.0652 0.8557
vt 0.0109 0.4948
vt 0.9348 0.9072
vt 0.7826 0.8454
vt 0.9891 0.2577
vt 0.9891 0.3093
vt 0.9348 0.3093
vt 0.9348 0.2577
vt 0.1196 0.0103
vt 0.2826 0.0103
vt 0.4674 0.8557
vt 0.6304 0.8557
vt 0.9891 0.8351
vt 0.5761 0.0103
vt 0.4130 0.0103
vt 0.8587 0.5155
vn 0.0000 0.0000 -1.0000
vn 0.0000 -1.0000 -0.0000
vn 0.0000 -0.0000 1.0000
vn 1.0000 -0.0000 0.0000
vn -0.0000 1.0000 0.0000
vn -1.0000 0.0000 0.0000
usemtl palette.002
s off
f 3/1/1 5/2/1 2/3/1
f 8/4/1 9/5/1 7/6/1
f 13/7/2 15/8/2 14/9/2
f 7/6/1 9/5/1 10/10/1
f 3/11/2 18/12/2 1/13/2
f 5/14/2 20/15/2 2/16/2
f 20/17/3 18/18/3 17/19/3
f 6/20/2 19/21/2 4/22/2
f 25/23/2 24/24/2 9/25/2
f 26/26/4 25/27/4 14/28/4
f 24/29/3 22/30/3 23/31/3
f 22/30/3 19/32/3 21/33/3
f 29/34/1 5/2/1 28/35/1
f 36/36/5 34/37/5 35/38/5
f 34/39/1 13/40/1 11/41/1
f 8/4/1 33/42/1 32/43/1
f 8/4/1 30/44/1 33/42/1
f 37/45/6 27/46/6 1/47/6
f 38/48/5 27/49/5 37/50/5
f 40/51/5 29/52/5 39/53/5
f 41/54/3 22/30/3 24/29/3
f 43/55/4 14/28/4 35/56/4
f 43/57/5 42/58/5 41/59/5
f 43/55/4 35/56/4 42/60/4
f 40/61/3 38/62/3 41/54/3
f 38/62/3 20/17/3 22/30/3
f 49/63/1 50/64/1 48/65/1
f 50/64/1 51/66/1 60/67/1
f 50/64/1 57/68/1 47/69/1
f 52/70/6 15/71/6 44/72/6
f 46/73/2 54/74/2 44/75/2
f 57/76/2 56/77/2 47/78/2
f 74/79/3 58/80/3 59/81/3
f 58/80/3 54/82/3 53/83/3
f 61/84/3 59/81/3 62/85/3
f 60/86/2 59/87/2 50/88/2
f 63/89/2 61/90/2 51/91/2
f 67/92/5 34/37/5 36/36/5
f 68/93/1 67/94/1 36/95/1
f 66/96/1 49/63/1 70/97/1
f 68/93/1 49/63/1 67/94/1
f 69/98/1 49/63/1 68/93/1
f 69/98/1 71/99/1 49/63/1
f 52/70/6 36/100/6 15/71/6
f 74/79/3 52/101/3 54/82/3
f 74/102/5 65/103/5 73/104/5
f 64/105/4 63/106/4 72/107/4
f 79/108/5 72/109/5 78/110/5
f 77/111/3 74/79/3 78/112/3
f 5/2/1 8/4/1 7/6/1
f 36/113/3 14/114/3 15/115/3
f 8/4/1 12/116/1 9/5/1
f 71/99/1 51/66/1 50/64/1
f 38/62/3 18/18/3 20/17/3
f 43/117/3 24/29/3 26/118/3
f 78/112/3 74/79/3 61/84/3
f 25/119/1 9/5/1 12/116/1 14/120/1
f 6/121/1 4/122/1 5/2/1 7/6/1
f 14/9/2 12/123/2 11/124/2 13/7/2
f 3/125/6 2/126/6 17/127/6 18/128/6
f 1/13/2 18/12/2 16/129/2
f 5/130/6 4/131/6 19/132/6 20/133/6
f 2/16/2 20/15/2 17/134/2
f 10/135/4 9/136/4 24/137/4 23/138/4
f 6/20/2 21/139/2 19/21/2
f 25/23/2 26/140/2 24/24/2
f 22/141/2 7/142/2 10/143/2 23/144/2
f 6/145/4 7/146/4 22/147/4 21/148/4
f 32/149/6 31/150/6 11/151/6 12/152/6
f 22/30/3 20/17/3 19/32/3
f 31/153/5 32/154/5 35/38/5 34/37/5
f 36/113/3 35/155/3 14/114/3
f 35/156/1 32/43/1 33/42/1 42/157/1
f 31/158/1 34/39/1 11/41/1
f 8/4/1 5/2/1 29/34/1 30/44/1
f 8/4/1 32/43/1 12/116/1
f 29/159/6 28/160/6 38/161/6 39/162/6
f 38/48/5 28/163/5 27/49/5
f 40/51/5 30/164/5 29/52/5
f 33/165/4 30/166/4 40/167/4 41/168/4
f 40/61/3 39/169/3 38/62/3
f 41/54/3 38/62/3 22/30/3
f 41/59/5 42/58/5 33/170/5
f 43/117/3 41/54/3 24/29/3
f 46/171/1 44/172/1 15/173/1 70/97/1
f 13/7/2 70/174/2 15/8/2
f 48/65/1 45/175/1 46/171/1 49/63/1
f 46/171/1 70/97/1 49/63/1
f 46/176/6 45/177/6 53/178/6 54/179/6
f 48/65/1 50/64/1 47/69/1
f 44/75/2 54/74/2 52/180/2
f 53/181/2 45/182/2 48/183/2 58/184/2
f 47/78/2 56/77/2 55/185/2
f 74/79/3 54/82/3 58/80/3
f 48/186/6 47/187/6 55/188/6 58/189/6
f 55/190/3 56/191/3 59/81/3 58/80/3
f 60/192/4 51/193/4 61/194/4 62/195/4
f 61/84/3 74/79/3 59/81/3
f 60/86/2 62/196/2 59/87/2
f 63/89/2 64/197/2 61/90/2
f 57/198/4 50/199/4 59/200/4 56/201/4
f 13/202/4 34/203/4 67/204/4 66/205/4
f 65/206/6 36/100/6 52/70/6 73/207/6
f 65/208/1 68/93/1 36/95/1
f 66/96/1 67/94/1 49/63/1
f 69/98/1 76/209/1 71/99/1
f 74/102/5 68/210/5 65/103/5
f 69/211/5 75/212/5 77/213/5 76/214/5
f 74/79/3 73/215/3 52/101/3
f 69/216/6 68/217/6 74/218/6 75/219/6
f 61/84/3 64/220/3 79/221/3 78/112/3
f 77/111/3 75/222/3 74/79/3
f 78/110/5 72/109/5 71/223/5
f 79/224/4 64/105/4 72/107/4
f 71/225/4 76/226/4 77/227/4 78/228/4
f 3/1/1 1/229/1 27/230/1 28/35/1
f 28/35/1 5/2/1 3/1/1
f 63/231/1 51/66/1 71/99/1 72/232/1
f 13/202/4 66/205/4 70/233/4
f 49/63/1 71/99/1 50/64/1
f 16/234/3 18/18/3 38/62/3 37/235/3
f 16/236/6 37/45/6 1/47/6
f 43/55/4 26/26/4 14/28/4
o charEyesStandard
v -9.000000 5.000000 1.000001
v -9.000000 2.000000 0.000000
v -9.000000 2.000000 1.000000
v -9.000000 5.000000 0.000001
v -8.000000 2.000000 1.000000
v -8.000000 1.000000 0.000000
v -8.000000 1.000000 1.000000
v -8.000000 2.000000 0.000000
v -8.000000 6.000000 1.000001
v -8.000000 5.000000 0.000001
v -8.000000 5.000000 1.000001
v -8.000000 6.000000 0.000001
v -6.000000 1.000000 1.000000
v -6.000000 0.000000 0.000000
v -6.000000 -0.000000 1.000000
v -6.000000 1.000000 0.000000
v -2.000000 4.000000 0.000001
v -2.000000 3.000000 -1.000000
v -2.000000 3.000000 0.000000
v -2.000000 4.000000 -0.999999
v 1.000000 3.000000 0.000000
v 1.000000 2.000000 0.000000
v 1.000000 2.000000 1.000000
v 1.000000 4.000000 0.000001
v 1.000000 5.000000 1.000001
v 1.000000 5.000000 0.000001
v 2.000000 2.000000 1.000000
v 2.000000 1.000000 0.000000
v 2.000000 1.000000 1.000000
v 2.000000 2.000000 0.000000
v 2.000000 6.000000 1.000001
v 2.000000 5.000000 0.000001
v 2.000000 5.000000 1.000001
v 2.000000 6.000000 0.000001
v 3.000000 1.000000 1.000000
v 3.000000 0.000000 0.000000
v 3.000000 -0.000000 1.000000
v 3.000000 1.000000 0.000000
v -3.000000 -0.000000 1.000000
v -3.000000 0.000000 0.000000
v -3.000000 1.000000 1.000000
v -3.000000 1.000000 0.000000
v -2.000000 1.000000 1.000000
v -2.000000 1.000000 0.000000
v -2.000000 2.000000 1.000000
v -2.000000 2.000000 0.000000
v -2.000000 5.000000 1.000001
v -2.000000 5.000000 0.000001
v -2.000000 6.000000 1.000001
v -2.000000 6.000000 0.000001
v -1.000000 2.000000 1.000000
v -1.000000 2.000000 0.000000
v -1.000000 3.000000 0.000000
v -1.000000 4.000000 0.000001
v -1.000000 5.000000 1.000001
v -1.000000 5.000000 0.000001
v 2.000000 3.000000 0.000000
v 2.000000 3.000000 -1.000000
v 2.000000 4.000000 0.000001
v 2.000000 4.000000 -0.999999
v 6.000000 -0.000000 1.000000
v 6.000000 0.000000 0.000000
v 6.000000 1.000000 1.000000
v 6.000000 1.000000 0.000000
v 8.000000 1.000000 1.000000
v 8.000000 1.000000 0.000000
v 8.000000 2.000000 1.000000
v 8.000000 2.000000 0.000000
v 8.000000 5.000000 1.000001
v 8.000000 5.000000 0.000001
v 8.000000 6.000000 1.000001
v 8.000000 6.000000 0.000001
v 9.000000 2.000000 1.000000
v 9.000000 2.000000 0.000000
v 9.000000 5.000000 1.000001
v 9.000000 5.000000 0.000001
v -8.000000 2.000000 1.000000
v -9.000000 5.000000 1.000001
v -9.000000 2.000000 1.000000
v -8.000000 4.000000 1.000001
v -8.000000 5.000000 1.000001
v -7.000000 4.000000 1.000001
v -8.000000 6.000000 1.000001
v -7.000000 5.000000 1.000001
v -6.000000 1.000000 1.000000
v -8.000000 1.000000 1.000000
v -6.000000 2.000000 1.000000
v -5.000000 2.000000 1.000000
v -5.000000 4.000000 1.000001
v -3.000000 -0.000000 1.000000
v -6.000000 -0.000000 1.000000
v -3.000000 1.000000 1.000000
v -3.000000 2.000000 1.000000
v -3.000000 4.000000 1.000001
v -2.000000 1.000000 1.000000
v -2.000000 2.000000 1.000000
v -2.000000 5.000000 1.000001
v -2.000000 6.000000 1.000001
v -1.000000 2.000000 1.000000
v -1.000000 5.000000 1.000001
v 2.000000 2.000000 1.000000
v 1.000000 5.000000 1.000001
v 1.000000 2.000000 1.000000
v 2.000000 5.000000 1.000001
v 3.000000 1.000000 1.000000
v 2.000000 1.000000 1.000000
v 3.000000 2.000000 1.000000
v 3.000000 4.000000 1.000001
v 5.000000 2.000000 1.000000
v 5.000000 4.000000 1.000001
v 6.000000 -0.000000 1.000000
v 3.000000 -0.000000 1.000000
v 6.000000 1.000000 1.000000
v 6.000000 2.000000 1.000000
v 7.000000 4.000000 1.000001
v 7.000000 5.000000 1.000001
v 2.000000 6.000000 1.000001
v 8.000000 1.000000 1.000000
v 8.000000 2.000000 1.000000
v 8.000000 4.000000 1.000001
v 8.000000 5.000000 1.000001
v 8.000000 6.000000 1.000001
v 9.000000 2.000000 1.000000
v 9.000000 5.000000 1.000001
v 1.000000 3.000000 0.000000
v -1.000000 4.000000 0.000001
v -1.000000 3.000000 0.000000
v 1.000000 4.000000 0.000001
v -9.000000 2.000000 0.000000
v -9.000000 5.000000 0.000001
v -8.000000 2.000000 0.000000
v -8.000000 4.000000 0.000001
v -8.000000 5.000000 0.000001
v -7.000000 4.000000 0.000001
v -8.000000 6.000000 0.000001
v -7.000000 5.000000 0.000001
v -8.000000 1.000000 0.000000
v -6.000000 1.000000 0.000000
v -6.000000 2.000000 0.000000
v -5.000000 2.000000 0.000000
v -5.000000 4.000000 0.000001
v -6.000000 0.000000 0.000000
v -3.000000 0.000000 0.000000
v -3.000000 1.000000 0.000000
v -3.000000 2.000000 0.000000
v -3.000000 4.000000 0.000001
v -2.000000 1.000000 0.000000
v -2.000000 2.000000 0.000000
v -2.000000 3.000000 0.000000
v -2.000000 4.000000 0.000001
v -2.000000 5.000000 0.000001
v -2.000000 6.000000 0.000001
v -1.000000 2.000000 0.000000
v -1.000000 3.000000 0.000000
v -1.000000 4.000000 0.000001
v -1.000000 5.000000 0.000001
v 1.000000 2.000000 0.000000
v 1.000000 3.000000 0.000000
v 2.000000 2.000000 0.000000
v 2.000000 3.000000 0.000000
v 1.000000 4.000000 0.000001
v 1.000000 5.000000 0.000001
v 2.000000 4.000000 0.000001
v 2.000000 5.000000 0.000001
v 2.000000 1.000000 0.000000
v 3.000000 1.000000 0.000000
v 3.000000 2.000000 0.000000
v 3.000000 4.000000 0.000001
v 5.000000 2.000000 0.000000
v 5.000000 4.000000 0.000001
v 3.000000 0.000000 0.000000
v 6.000000 0.000000 0.000000
v 6.000000 1.000000 0.000000
v 6.000000 2.000000 0.000000
v 7.000000 4.000000 0.000001
v 2.000000 6.000000 0.000001
v 7.000000 5.000000 0.000001
v 8.000000 1.000000 0.000000
v 8.000000 2.000000 0.000000
v 8.000000 4.000000 0.000001
v 8.000000 5.000000 0.000001
v 8.000000 6.000000 0.000001
v 9.000000 2.000000 0.000000
v 9.000000 5.000000 0.000001
v -2.000000 3.000000 -1.000000
v -2.000000 4.000000 -0.999999
v 2.000000 3.000000 -1.000000
v 2.000000 4.000000 -0.999999
v -6.000000 0.000000 0.000000
v -3.000000 -0.000000 1.000000
v -6.000000 -0.000000 1.000000
v -3.000000 0.000000 0.000000
v 3.000000 0.000000 0.000000
v 6.000000 -0.000000 1.000000
v 3.000000 -0.000000 1.000000
v 6.000000 0.000000 0.000000
v -8.000000 1.000000 0.000000
v -6.000000 1.000000 1.000000
v -8.000000 1.000000 1.000000
v -6.000000 1.000000 0.000000
v -3.000000 1.000000 0.000000
v -2.000000 1.000000 1.000000
v -3.000000 1.000000 1.000000
v -2.000000 1.000000 0.000000
v 2.000000 1.000000 0.000000
v 3.000000 1.000000 1.000000
v 2.000000 1.000000 1.000000
v 3.000000 1.000000 0.000000
v 6.000000 1.000000 0.000000
v 8.000000 1.000000 1.000000
v 6.000000 1.000000 1.000000
v 8.000000 1.000000 0.000000
v -9.000000 2.000000 0.000000
v -8.000000 2.000000 1.000000
v -9.000000 2.000000 1.000000
v -8.000000 2.000000 0.000000
v -2.000000 2.000000 0.000000
v -1.000000 2.000000 1.000000
v -2.000000 2.000000 1.000000
v -1.000000 2.000000 0.000000
v 1.000000 2.000000 0.000000
v 2.000000 2.000000 1.000000
v 1.000000 2.000000 1.000000
v 2.000000 2.000000 0.000000
v 8.000000 2.000000 0.000000
v 9.000000 2.000000 1.000000
v 8.000000 2.000000 1.000000
v 9.000000 2.000000 0.000000
v -2.000000 3.000000 -1.000000
v -1.000000 3.000000 0.000000
v -2.000000 3.000000 0.000000
v 2.000000 3.000000 0.000000
v 1.000000 3.000000 0.000000
v 2.000000 3.000000 -1.000000
v -2.000000 4.000000 0.000001
v -1.000000 4.000000 0.000001
v -2.000000 4.000000 -0.999999
v 1.000000 4.000000 0.000001
v 2.000000 4.000000 0.000001
v 2.000000 4.000000 -0.999999
v -9.000000 5.000000 1.000001
v -8.000000 5.000000 1.000001
v -9.000000 5.000000 0.000001
v -8.000000 5.000000 0.000001
v -2.000000 5.000000 1.000001
v -1.000000 5.000000 1.000001
v -2.000000 5.000000 0.000001
v -1.000000 5.000000 0.000001
v 1.000000 5.000000 1.000001
v 2.000000 5.000000 1.000001
v 1.000000 5.000000 0.000001
v 2.000000 5.000000 0.000001
v 8.000000 5.000000 1.000001
v 9.000000 5.000000 1.000001
v 8.000000 5.000000 0.000001
v 9.000000 5.000000 0.000001
v -8.000000 6.000000 1.000001
v -2.000000 6.000000 1.000001
v -8.000000 6.000000 0.000001
v -2.000000 6.000000 0.000001
v 2.000000 6.000000 1.000001
v 8.000000 6.000000 1.000001
v 2.000000 6.000000 0.000001
v 8.000000 6.000000 0.000001
vt 0.9746 0.5000
vt 0.9746 0.5000
vt 0.9746 0.5000
vt 0.9746 0.5000
vt 0.9746 0.5000
vt 0.9746 0.5000
vt 0.9746 0.5000
vt 0.9746 0.5000
vt 0.9746 0.5000
vt 0.9746 0.5000
vt 0.9746 0.5000
vt 0.9746 0.5000
vt 0.9746 0.5000
vt 0.9746 0.5000
vt 0.9746 0.5000
vt 0.9746 0.5000
vt 0.9707 0.5000
vt 0.9707 0.5000
vt 0.9707 0.5000
vt 0.9707 0.5000
vt 0.9746 0.5000
vt 0.9746 0.5000
vt 0.9746 0.5000
vt 0.9746 0.5000
vt 0.9746 0.5000
vt 0.9746 0.5000
vt 0.9746 0.5000
vt 0.9746 0.5000
vt 0.9746 0.5000
vt 0.9746 0.5000
vt 0.9746 0.5000
vt 0.9746 0.5000
vt 0.9746 0.5000
vt 0.9746 0.5000
vt 0.9746 0.5000
vt 0.9746 0.5000
vt 0.9746 0.5000
vt 0.9746 0.5000
vt 0.9746 0.5000
vt 0.9746 0.5000
vt 0.9746 0.5000
vt 0.9746 0.5000
vt 0.9746 0.5000
vt 0.9746 0.5000
vt 0.9746 0.5000
vt 0.9746 0.5000
vt 0.9746 0.5000
vt 0.9746 0.5000
vt 0.9746 0.5000
vt 0.9746 0.5000
vt 0.9746 0.5000
vt 0.9746 0.5000
vt 0.9746 0.5000
vt 0.9746 0.5000
vt 0.9746 0.5000
vt 0.9746 0.5000
vt 0.9707 0.5000
vt 0.9707 0.5000
vt 0.9707 0.5000
vt 0.9707 0.5000
vt 0.9746 0.5000
vt 0.9746 0.5000
vt 0.9746 0.5000
vt 0.9746 0.5000
vt 0.9746 0.5000
vt 0.9746 0.5000
vt 0.9746 0.5000
vt 0.9746 0.5000
vt 0.9746 0.5000
vt 0.9746 0.5000
vt 0.9746 0.5000
vt 0.9746 0.5000
vt 0.9746 0.5000
vt 0.9746 0.5000
vt 0.9746 0.5000
vt 0.9746 0.5000
vt 0.9746 0.5000
vt 0.9746 0.5000
vt 0.9746 0.5000
vt 0.9746 0.5000
vt 0.9746 0.5000
vt 0.9395 0.5000
vt 0.9395 0.5000
vt 0.9395 0.5000
vt 0.9746 0.5000
vt 0.9746 0.5000
vt 0.9746 0.5000
vt 0.9746 0.5000
vt 0.9746 0.5000
vt 0.9395 0.5000
vt 0.9395 0.5000
vt 0.9746 0.5000
vt 0.9395 0.5000
vt 0.9395 0.5000
vt 0.9395 0.5000
vt 0.9746 0.5000
vt 0.9746 0.5000
vt 0.9395 0.5000
vt 0.9746 0.5000
vt 0.9746 0.5000
vt 0.9746 0.5000
vt 0.9746 0.5000
vt 0.9395 0.5000
vt 0.9395 0.5000
vt 0.9746 0.5000
vt 0.9746 0.5000
vt 0.9395 0.5000
vt 0.9746 0.5000
vt 0.9746 0.5000
vt 0.9395 0.5000
vt 0.9746 0.5000
vt 0.9746 0.5000
vt 0.9746 0.5000
vt 0.9746 0.5000
vt 0.9746 0.5000
vt 0.9746 0.5000
vt 0.9746 0.5000
vt 0.9746 0.5000
vt 0.9746 0.5000
vt 0.9395 0.5000
vt 0.9395 0.5000
vt 0.9395 0.5000
vt 0.9746 0.5000
vt 0.9395 0.5000
vt 0.9395 0.5000
vt 0.9395 0.5000
vt 0.9746 0.5000
vt 0.9746 0.5000
vt 0.9395 0.5000
vt 0.9746 0.5000
vt 0.9746 0.5000
vt 0.9746 0.5000
vt 0.9395 0.5000
vt 0.9746 0.5000
vt 0.9395 0.5000
vt 0.9395 0.5000
vt 0.9746 0.5000
vt 0.9746 0.5000
vt 0.9395 0.5000
vt 0.9746 0.5000
vt 0.9746 0.5000
vt 0.9395 0.5000
vt 0.9746 0.5000
vt 0.9746 0.5000
vt 0.9746 0.5000
vt 0.9395 0.5000
vt 0.9746 0.5000
vt 0.9746 0.5000
vt 0.9746 0.5000
vt 0.9746 0.5000
vt 0.9707 0.5000
vt 0.9707 0.5000
vt 0.9707 0.5000
vt 0.9707 0.5000
vt 0.9746 0.5000
vt 0.9746 0.5000
vt 0.9746 0.5000
vt 0.9746 0.5000
vt 0.9746 0.5000
vt 0.9395 0.5000
vt 0.9395 0.5000
vt 0.9395 0.5000
vt 0.9746 0.5000
vt 0.9746 0.5000
vt 0.9746 0.5000
vt 0.9746 0.5000
vt 0.9746 0.5000
vt 0.9395 0.5000
vt 0.9395 0.5000
vt 0.9746 0.5000
vt 0.9395 0.5000
vt 0.9395 0.5000
vt 0.9395 0.5000
vt 0.9746 0.5000
vt 0.9746 0.5000
vt 0.9395 0.5000
vt 0.9746 0.5000
vt 0.9746 0.5000
vt 0.9746 0.5000
vt 0.9746 0.5000
vt 0.9395 0.5000
vt 0.9395 0.5000
vt 0.9746 0.5000
vt 0.9746 0.5000
vt 0.9395 0.5000
vt 0.9746 0.5000
vt 0.9395 0.5000
vt 0.9395 0.5000
vt 0.9746 0.5000
vt 0.9395 0.5000
vt 0.9746 0.5000
vt 0.9746 0.5000
vt 0.9746 0.5000
vt 0.9746 0.5000
vt 0.9746 0.5000
vt 0.9746 0.5000
vt 0.9746 0.5000
vt 0.9746 0.5000
vt 0.9746 0.5000
vt 0.9746 0.5000
vt 0.9746 0.5000
vt 0.9746 0.5000
vt 0.9746 0.5000
vt 0.9746 0.5000
vt 0.9746 0.5000
vt 0.9746 0.5000
vt 0.9746 0.5000
vt 0.9395 0.5000
vt 0.9395 0.5000
vt 0.9395 0.5000
vt 0.9395 0.5000
vt 0.9395 0.5000
vt 0.9746 0.5000
vt 0.9395 0.5000
vt 0.9395 0.5000
vt 0.9395 0.5000
vt 0.9746 0.5000
vt 0.9746 0.5000
vt 0.9395 0.5000
vt 0.9746 0.5000
vt 0.9746 0.5000
vt 0.9746 0.5000
vt 0.9395 0.5000
vt 0.9746 0.5000
vt 0.9395 0.5000
vt 0.9395 0.5000
vt 0.9746 0.5000
vt 0.9746 0.5000
vt 0.9395 0.5000
vt 0.9746 0.5000
vt 0.9746 0.5000
vt 0.9395 0.5000
vt 0.9746 0.5000
vt 0.9746 0.5000
vt 0.9746 0.5000
vt 0.9395 0.5000
vt 0.9746 0.5000
vt 0.9746 0.5000
vt 0.9746 0.5000
vt 0.9746 0.5000
vt 0.9707 0.5000
vt 0.9707 0.5000
vt 0.9707 0.5000
vt 0.9707 0.5000
vt 0.9746 0.5000
vt 0.9746 0.5000
vt 0.9746 0.5000
vt 0.9746 0.5000
vt 0.9746 0.5000
vt 0.9746 0.5000
vt 0.9746 0.5000
vt 0.9746 0.5000
vt 0.9746 0.5000
vt 0.9746 0.5000
vt 0.9746 0.5000
vt 0.9746 0.5000
vt 0.9746 0.5000
vt 0.9746 0.5000
vt 0.9746 0.5000
vt 0.9746 0.5000
vt 0.9746 0.5000
vt 0.9746 0.5000
vt 0.9746 0.5000
vt 0.9746 0.5000
vt 0.9746 0.5000
vt 0.9746 0.5000
vt 0.9746 0.5000
vt 0.9746 0.5000
vt 0.9746 0.5000
vt 0.9746 0.5000
vt 0.9746 0.5000
vt 0.9746 0.5000
vt 0.9746 0.5000
vt 0.9746 0.5000
vt 0.9746 0.5000
vt 0.9746 0.5000
vt 0.9746 0.5000
vt 0.9746 0.5000
vt 0.9746 0.5000
vt 0.9746 0.5000
vt 0.9746 0.5000
vt 0.9746 0.5000
vt 0.9746 0.5000
vt 0.9746 0.5000
vt 0.9707 0.5000
vt 0.9707 0.5000
vt 0.9707 0.5000
vt 0.9707 0.5000
vt 0.9707 0.5000
vt 0.9707 0.5000
vt 0.9707 0.5000
vt 0.9707 0.5000
vt 0.9707 0.5000
vt 0.9707 0.5000
vt 0.9707 0.5000
vt 0.9707 0.5000
vt 0.9746 0.5000
vt 0.9746 0.5000
vt 0.9746 0.5000
vt 0.9746 0.5000
vt 0.9746 0.5000
vt 0.9746 0.5000
vt 0.9746 0.5000
vt 0.9746 0.5000
vt 0.9746 0.5000
vt 0.9746 0.5000
vt 0.9746 0.5000
vt 0.9746 0.5000
vt 0.9746 0.5000
vt 0.9746 0.5000
vt 0.9746 0.5000
vt 0.9746 0.5000
vt 0.9746 0.5000
vt 0.9746 0.5000
vt 0.9746 0.5000
vt 0.9746 0.5000
vt 0.9746 0.5000
vt 0.9746 0.5000
vt 0.9746 0.5000
vt 0.9746 0.5000
vn -1.0000 -0.0000 0.0000
vn 1.0000 0.0000 0.0000
vn 0.0000 -0.0000 1.0000
vn 0.0000 0.0000 -1.0000
vn 0.0000 -1.0000 -0.0000
vn 0.0000 1.0000 0.0000
usemtl palette.002_charEyesStandard.png
s 1
f 80/237/7 81/238/7 82/239/7
f 83/240/7 81/238/7 80/237/7
f 84/241/7 85/242/7 86/243/7
f 87/244/7 85/242/7 84/241/7
f 88/245/7 89/246/7 90/247/7
f 91/248/7 89/246/7 88/245/7
f 92/249/7 93/250/7 94/251/7
f 95/252/7 93/250/7 92/249/7
f 96/253/7 97/254/7 98/255/7
f 99/256/7 97/254/7 96/253/7
f 100/257/7 101/258/7 102/259/7
f 103/260/7 100/257/7 102/259/7
f 104/261/7 103/260/7 102/259/7
f 105/262/7 103/260/7 104/261/7
f 106/263/7 107/264/7 108/265/7
f 109/266/7 107/264/7 106/263/7
f 110/267/7 111/268/7 112/269/7
f 113/270/7 111/268/7 110/267/7
f 114/271/7 115/272/7 116/273/7
f 117/274/7 115/272/7 114/271/7
f 118/275/8 119/276/8 120/277/8
f 120/277/8 119/276/8 121/278/8
f 122/279/8 123/280/8 124/281/8
f 124/281/8 123/280/8 125/282/8
f 126/283/8 127/284/8 128/285/8
f 128/285/8 127/284/8 129/286/8
f 130/287/8 131/288/8 132/289/8
f 130/287/8 132/289/8 133/290/8
f 130/287/8 133/290/8 134/291/8
f 134/291/8 133/290/8 135/292/8
f 136/293/8 137/294/8 138/295/8
f 138/295/8 137/294/8 139/296/8
f 140/297/8 141/298/8 142/299/8
f 142/299/8 141/298/8 143/300/8
f 144/301/8 145/302/8 146/303/8
f 146/303/8 145/302/8 147/304/8
f 148/305/8 149/306/8 150/307/8
f 150/307/8 149/306/8 151/308/8
f 152/309/8 153/310/8 154/311/8
f 154/311/8 153/310/8 155/312/8
f 156/313/9 157/314/9 158/315/9
f 159/316/9 157/314/9 156/313/9
f 160/317/9 157/314/9 159/316/9
f 161/318/9 159/319/9 156/320/9
f 161/321/9 162/322/9 160/317/9
f 161/321/9 160/317/9 159/316/9
f 163/323/9 162/322/9 161/321/9
f 164/324/9 156/313/9 165/325/9
f 166/326/9 161/318/9 156/320/9
f 166/326/9 163/327/9 161/318/9
f 166/328/9 156/313/9 164/324/9
f 167/329/9 166/326/9 164/330/9
f 167/329/9 163/327/9 166/326/9
f 168/331/9 163/327/9 167/329/9
f 169/332/9 164/324/9 170/333/9
f 171/334/9 167/329/9 164/330/9
f 171/335/9 164/324/9 169/332/9
f 172/336/9 168/337/9 167/338/9
f 172/339/9 167/329/9 171/334/9
f 173/340/9 163/327/9 168/331/9
f 173/341/9 168/337/9 172/336/9
f 174/342/9 172/336/9 171/335/9
f 175/343/9 173/340/9 172/339/9
f 175/344/9 172/336/9 174/342/9
f 176/345/9 162/322/9 163/323/9
f 176/346/9 173/340/9 175/343/9
f 176/346/9 163/327/9 173/340/9
f 177/347/9 162/322/9 176/345/9
f 178/348/9 176/345/9 175/344/9
f 179/349/9 176/345/9 178/348/9
f 180/350/9 181/351/9 182/352/9
f 183/353/9 181/351/9 180/350/9
f 184/354/9 180/350/9 185/355/9
f 186/356/9 183/357/9 180/358/9
f 186/359/9 180/350/9 184/354/9
f 187/360/9 183/357/9 186/356/9
f 188/361/9 186/356/9 184/362/9
f 188/363/9 187/364/9 186/359/9
f 189/365/9 183/357/9 187/360/9
f 189/366/9 187/364/9 188/363/9
f 190/367/9 184/354/9 191/368/9
f 192/369/9 188/361/9 184/362/9
f 192/370/9 184/354/9 190/367/9
f 192/369/9 189/365/9 188/361/9
f 193/371/9 189/365/9 192/369/9
f 194/372/9 183/357/9 189/365/9
f 194/372/9 189/365/9 193/371/9
f 195/373/9 196/374/9 183/353/9
f 195/375/9 183/357/9 194/372/9
f 197/376/9 193/377/9 192/370/9
f 198/378/9 194/372/9 193/371/9
f 198/379/9 193/377/9 197/376/9
f 199/380/9 195/373/9 194/381/9
f 199/382/9 194/372/9 198/378/9
f 200/383/9 196/374/9 195/373/9
f 200/383/9 195/373/9 199/380/9
f 201/384/9 196/374/9 200/383/9
f 202/385/9 199/380/9 198/379/9
f 202/385/9 200/383/9 199/380/9
f 203/386/9 200/383/9 202/385/9
f 204/387/9 205/388/9 206/389/9
f 207/390/9 205/388/9 204/387/9
f 208/391/10 209/392/10 210/393/10
f 210/393/10 209/392/10 211/394/10
f 211/394/10 209/392/10 212/395/10
f 210/396/10 211/397/10 213/398/10
f 212/395/10 214/399/10 213/400/10
f 211/394/10 212/395/10 213/400/10
f 213/400/10 214/399/10 215/401/10
f 216/402/10 210/393/10 217/403/10
f 210/396/10 213/398/10 218/404/10
f 213/398/10 215/405/10 218/404/10
f 217/403/10 210/393/10 218/406/10
f 217/407/10 218/404/10 219/408/10
f 218/404/10 215/405/10 219/408/10
f 219/408/10 215/405/10 220/409/10
f 221/410/10 217/403/10 222/411/10
f 217/407/10 219/408/10 223/412/10
f 222/411/10 217/403/10 223/413/10
f 219/414/10 220/415/10 224/416/10
f 223/412/10 219/408/10 224/417/10
f 220/409/10 215/405/10 225/418/10
f 224/416/10 220/415/10 225/419/10
f 223/413/10 224/416/10 226/420/10
f 224/417/10 225/418/10 227/421/10
f 226/420/10 224/416/10 227/422/10
f 227/421/10 225/418/10 228/423/10
f 225/418/10 215/405/10 229/424/10
f 228/423/10 225/418/10 229/424/10
f 215/401/10 214/399/10 230/425/10
f 229/424/10 215/405/10 230/426/10
f 230/425/10 214/399/10 231/427/10
f 227/422/10 228/428/10 232/429/10
f 232/429/10 228/428/10 233/430/10
f 229/431/10 230/425/10 234/432/10
f 234/432/10 230/425/10 235/433/10
f 236/434/10 237/435/10 238/436/10
f 238/436/10 237/435/10 239/437/10
f 240/438/10 241/439/10 242/440/10
f 242/440/10 241/439/10 243/441/10
f 244/442/10 238/436/10 245/443/10
f 242/444/10 243/445/10 246/446/10
f 238/447/10 239/448/10 246/446/10
f 245/443/10 238/436/10 246/449/10
f 239/448/10 242/444/10 246/446/10
f 246/446/10 243/445/10 247/450/10
f 245/451/10 246/446/10 248/452/10
f 246/449/10 247/453/10 248/454/10
f 247/450/10 243/445/10 249/455/10
f 248/454/10 247/453/10 249/456/10
f 250/457/10 245/443/10 251/458/10
f 245/451/10 248/452/10 252/459/10
f 251/458/10 245/443/10 252/460/10
f 248/452/10 249/455/10 252/459/10
f 252/459/10 249/455/10 253/461/10
f 249/455/10 243/445/10 254/462/10
f 253/461/10 249/455/10 254/462/10
f 243/441/10 255/463/10 256/464/10
f 254/462/10 243/445/10 256/465/10
f 252/460/10 253/466/10 257/467/10
f 253/461/10 254/462/10 258/468/10
f 257/467/10 253/466/10 258/469/10
f 254/470/10 256/464/10 259/471/10
f 258/468/10 254/462/10 259/472/10
f 256/464/10 255/463/10 260/473/10
f 259/471/10 256/464/10 260/473/10
f 260/473/10 255/463/10 261/474/10
f 258/469/10 259/471/10 262/475/10
f 259/471/10 260/473/10 262/475/10
f 262/475/10 260/473/10 263/476/10
f 264/477/10 265/478/10 266/479/10
f 266/479/10 265/478/10 267/480/10
f 268/481/11 269/482/11 270/483/11
f 271/484/11 269/482/11 268/481/11
f 272/485/11 273/486/11 274/487/11
f 275/488/11 273/486/11 272/485/11
f 276/489/11 277/490/11 278/491/11
f 279/492/11 277/490/11 276/489/11
f 280/493/11 281/494/11 282/495/11
f 283/496/11 281/494/11 280/493/11
f 284/497/11 285/498/11 286/499/11
f 287/500/11 285/498/11 284/497/11
f 288/501/11 289/502/11 290/503/11
f 291/504/11 289/502/11 288/501/11
f 292/505/11 293/506/11 294/507/11
f 295/508/11 293/506/11 292/505/11
f 296/509/11 297/510/11 298/511/11
f 299/512/11 297/510/11 296/509/11
f 300/513/11 301/514/11 302/515/11
f 303/516/11 301/514/11 300/513/11
f 304/517/11 305/518/11 306/519/11
f 307/520/11 305/518/11 304/517/11
f 308/521/11 309/522/11 310/523/11
f 308/521/11 311/524/11 312/525/11
f 308/521/11 312/525/11 309/522/11
f 313/526/11 311/524/11 308/521/11
f 314/527/12 315/528/12 316/529/12
f 317/530/12 318/531/12 316/529/12
f 315/528/12 317/530/12 316/529/12
f 316/529/12 318/531/12 319/532/12
f 320/533/12 321/534/12 322/535/12
f 322/535/12 321/534/12 323/536/12
f 324/537/12 325/538/12 326/539/12
f 326/539/12 325/538/12 327/540/12
f 328/541/12 329/542/12 330/543/12
f 330/543/12 329/542/12 331/544/12
f 332/545/12 333/546/12 334/547/12
f 334/547/12 333/546/12 335/548/12
f 336/549/12 337/550/12 338/551/12
f 338/551/12 337/550/12 339/552/12
f 340/553/12 341/554/12 342/555/12
f 342/555/12 341/554/12 343/556/12
